<?xml version="1.0" encoding="UTF-8" standalone="no"?>
<svg
   viewBox="0 0 512 512"
   version="1.1"
   id="svg4"
   sodipodi:docname="copyleft.svg"
   inkscape:version="1.1.1 (3bf5ae0d25, 2021-09-20)"
   xmlns:inkscape="http://www.inkscape.org/namespaces/inkscape"
   xmlns:sodipodi="http://sodipodi.sourceforge.net/DTD/sodipodi-0.dtd"
   xmlns="http://www.w3.org/2000/svg"
   xmlns:svg="http://www.w3.org/2000/svg">
  <defs
     id="defs8" />
  <sodipodi:namedview
     id="namedview6"
     pagecolor="#ffffff"
     bordercolor="#666666"
     borderopacity="1.0"
     inkscape:pageshadow="2"
     inkscape:pageopacity="0.0"
     inkscape:pagecheckerboard="0"
     showgrid="false"
     inkscape:zoom="1.7050781"
     inkscape:cx="255.70676"
     inkscape:cy="255.70676"
     inkscape:window-width="3769"
     inkscape:window-height="2132"
     inkscape:window-x="71"
     inkscape:window-y="0"
     inkscape:window-maximized="1"
     inkscape:current-layer="svg4" />
  <path
     d="M 256,8 C 392.967,8 504,119.033 504,256 504,392.967 392.967,504 256,504 119.033,504 8,392.967 8,256 8,119.033 119.033,8 256,8 Z M 138.866,354.753 c 1.592,1.867 39.776,45.731 109.851,45.731 84.692,0 144.484,-63.26 144.484,-145.567 0,-81.303 -62.004,-143.401 -143.762,-143.401 -66.957,0 -101.965,37.315 -103.422,38.904 a -12,12 0 0 0 -1.238,14.623 l 22.38,34.655 c 4.049,6.267 12.774,7.351 18.234,2.295 0.233,-0.214 26.529,-23.88 61.88,-23.88 46.116,0 73.916,33.575 73.916,76.082 0,39.602 -25.514,79.692 -74.277,79.692 -38.697,0 -65.28,-28.338 -65.544,-28.625 -5.132,-5.565 -14.059,-5.033 -18.508,1.053 l -24.547,33.572 a -12.001,12.001 0 0 0 0.553,14.866 z"
     id="path2" />
</svg>
