<?xml version="1.0" encoding="UTF-8" standalone="no"?>
<!-- Created with Inkscape (http://www.inkscape.org/) -->
<svg xmlns:dc="http://purl.org/dc/elements/1.1/" xmlns:cc="http://web.resource.org/cc/" xmlns:rdf="http://www.w3.org/1999/02/22-rdf-syntax-ns#" xmlns:svg="http://www.w3.org/2000/svg" xmlns="http://www.w3.org/2000/svg" xmlns:sodipodi="http://sodipodi.sourceforge.net/DTD/sodipodi-0.dtd" xmlns:inkscape="http://www.inkscape.org/namespaces/inkscape" width="1024" height="350" id="svg2" sodipodi:version="0.32" inkscape:version="0.44" version="1.0" sodipodi:docbase="C:\Documents and Settings\Administrator\Desktop\Wikipedia" sodipodi:docname="Computer buses 3.svg">
  <defs id="defs4"/>
  <sodipodi:namedview id="base" pagecolor="#ffffff" bordercolor="#666666" borderopacity="1.0" gridtolerance="10000" guidetolerance="10" objecttolerance="10" inkscape:pageopacity="0.0" inkscape:pageshadow="2" inkscape:zoom="0.98994949" inkscape:cx="488.25782" inkscape:cy="223.99339" inkscape:document-units="px" inkscape:current-layer="layer1" width="1024px" height="350px" showguides="true" inkscape:guide-bbox="true" inkscape:window-width="1247" inkscape:window-height="973" inkscape:window-x="-4" inkscape:window-y="-4">
    <sodipodi:guide orientation="vertical" position="132.32998" id="guide1978"/>
    <sodipodi:guide orientation="horizontal" position="38.385797" id="guide1980"/>
  </sodipodi:namedview>
  <metadata id="metadata7">
    <rdf:RDF>
      <cc:Work rdf:about="">
        <dc:format>image/svg+xml</dc:format>
        <dc:type rdf:resource="http://purl.org/dc/dcmitype/StillImage"/>
      </cc:Work>
    </rdf:RDF>
  </metadata>
  <g inkscape:label="Layer 1" inkscape:groupmode="layer" id="layer1">
    <polygon style="fill:#fec4ff" points="19,16 108,16 108,15 110,17 108,19 108,18 105,18 105,25 106,25 104,27 102,25 103,25 103,18 85,18 85,25 86,25 83.6207,27 82,25 83,25 83,18 65,18 65,25 66,25 64,27 62,25 63,25 63,18 45,18 45,25 46,25 44,27 42,25 43,25 43,18 19,18 19,19 17,17 19,15 19,16 " id="polygon1874" transform="matrix(9.571705,0,0,9.571705,-55.445,2.313602)"/>
    <polygon style="fill:none;fill-opacity:0;stroke:black;stroke-width:0.1" points="19,16 108,16 108,15 110,17 108,19 108,18 105,18 105,25 106,25 104,27 102,25 103,25 103,18 85,18 85,25 86,25 83.6207,27 82,25 83,25 83,18 65,18 65,25 66,25 64,27 62,25 63,25 63,18 45,18 45,25 46,25 44,27 42,25 43,25 43,18 19,18 19,19 17,17 19,15 19,16 " id="polygon1876" transform="matrix(9.571705,0,0,9.571705,-55.445,2.313602)"/>
    <rect style="fill:white" x="21.128639" y="21.457012" width="86.145348" height="296.72287" rx="1.1251447e-038" ry="1.1251447e-038" id="rect1878"/>
    <rect style="fill:none;fill-opacity:0;stroke:black;stroke-width:0.95717049" x="21.128639" y="21.457012" width="86.145348" height="296.72287" rx="1.1251447e-038" ry="1.1251447e-038" id="rect1880"/>
    <polygon style="fill:#aff4f9" points="19,10 108,10 108,9 110,11 108,13 108,12 99,12 99,25 100,25 98,27 96,25 97,25 97,12 79,12 79,25 80,25 78,27 76,25 77,25 77,12 59,12 59,25 60,25 58,27 56,25 57,25 57,12 39,12 39,25 40,25 38,27 36,25 37,25 37,12 19,12 19,13 17,11 19,9 19,10 " id="polygon1882" transform="matrix(9.571705,0,0,9.571705,-55.445,2.313602)"/>
    <polygon style="fill:none;fill-opacity:0;stroke:black;stroke-width:0.1" points="19,10 108,10 108,9 110,11 108,13 108,12 99,12 99,25 100,25 98,27 96,25 97,25 97,12 79,12 79,25 80,25 78,27 76,25 77,25 77,12 59,12 59,25 60,25 58,27 56,25 57,25 57,12 39,12 39,25 40,25 38,27 36,25 37,25 37,12 19,12 19,13 17,11 19,9 19,10 " id="polygon1884" transform="matrix(9.571705,0,0,9.571705,-55.445,2.313602)"/>
    <rect style="fill:white" x="605.00262" y="260.74963" width="172.2907" height="57.430229" rx="1.1251447e-038" ry="1.1251447e-038" id="rect1886"/>
    <rect style="fill:none;fill-opacity:0;stroke:black;stroke-width:0.95717049" x="605.00262" y="260.74963" width="172.2907" height="57.430229" rx="1.1251447e-038" ry="1.1251447e-038" id="rect1888"/>
    <rect style="fill:white" x="222.13445" y="260.74963" width="172.2907" height="57.430229" rx="1.1251447e-038" ry="1.1251447e-038" id="rect1890"/>
    <rect style="fill:lime;fill-opacity:0;stroke:black;stroke-width:0.95717049" x="222.13445" y="260.74963" width="172.2907" height="57.430229" rx="1.1251447e-038" ry="1.1251447e-038" id="rect1892"/>
    <rect style="fill:white" x="413.56854" y="260.74963" width="172.2907" height="57.430229" rx="1.1251447e-038" ry="1.1251447e-038" id="rect1894"/>
    <rect style="fill:none;fill-opacity:0;stroke:black;stroke-width:0.95717049" x="413.56854" y="260.74963" width="172.2907" height="57.430229" rx="1.1251447e-038" ry="1.1251447e-038" id="rect1896"/>
    <text style="font-size:59.87108994px;font-style:normal;font-weight:normal;text-anchor:middle;fill:black;font-family:sans" x="310.26843" y="311.6142" id="text1898">RAM</text>
    <text style="font-size:61.67222595px;font-style:normal;font-weight:normal;text-anchor:middle;fill:black;font-family:sans" x="503.95428" y="310.86136" id="text1900">ROM</text>
    <text style="font-size:60.82674408px;font-style:normal;font-weight:normal;text-anchor:middle;fill:black;font-family:sans" x="694.96942" y="310.8717" id="text1902">I/O</text>
    <rect style="fill:white" x="796.43677" y="260.74963" width="172.2907" height="57.430229" rx="1.1251447e-038" ry="1.1251447e-038" id="rect1904"/>
    <rect style="fill:none;fill-opacity:0;stroke:black;stroke-width:0.95717049" x="796.43677" y="260.74963" width="172.2907" height="57.430229" rx="1.1251447e-038" ry="1.1251447e-038" id="rect1906"/>
    <text style="font-size:62.18074417px;font-style:normal;font-weight:normal;text-anchor:middle;fill:black;font-family:sans" x="883.9845" y="310.85516" id="text1908">Other</text>
    <polygon style="fill:yellow" points="17,4 108,4 108,3 110,5 108,7 108,6 93,6 93,25 94,25 92.2507,27.05 90,25 91,25 91,6 73,6 73,25 74,25 72,27 70,25 71,25 71,6 53,6 53,25 54,25 52,27 50,25 51,25 51,6 33,6 33,25 34,25 32,27 30,25 31,25 31,6 17,6 17,4 " id="polygon1910" transform="matrix(9.571705,0,0,9.571705,-55.445,2.313602)"/>
    <polygon style="fill:none;fill-opacity:0;stroke:black;stroke-width:0.1" points="17,4 108,4 108,3 110,5 108,7 108,6 93,6 93,25 94,25 92.2507,27.05 90,25 91,25 91,6 73,6 73,25 74,25 72,27 70,25 71,25 71,6 53,6 53,25 54,25 52,27 50,25 51,25 51,6 33,6 33,25 34,25 32,27 30,25 31,25 31,6 17,6 17,4 " id="polygon1912" transform="matrix(9.571705,0,0,9.571705,-55.445,2.313602)"/>
    <text style="font-size:33.00771332px;font-style:normal;font-weight:normal;text-anchor:start;fill:black;font-family:sans" x="29.363546" y="176.66982" id="text1914">CPU</text>
    <text style="font-size:20.2476387px;font-style:normal;font-weight:normal;text-anchor:start;fill:black;font-family:sans" x="132.35963" y="57.051048" id="text1916">Address bus</text>
    <text style="font-size:19.53742981px;font-style:normal;font-weight:normal;text-anchor:start;fill:black;font-family:sans" x="131.35692" y="171.21985" id="text1918">Control bus</text>
    <text style="font-size:20.64641762px;font-style:normal;font-weight:normal;text-anchor:start;fill:black;font-family:sans" x="130.73714" y="114.50462" id="text1920">Data bus</text>
  </g>
</svg>