<?xml version="1.0" encoding="UTF-8" standalone="no"?>
<!-- Created with Inkscape (http://www.inkscape.org/) -->
<svg xmlns:dc="http://purl.org/dc/elements/1.1/" xmlns:cc="http://creativecommons.org/ns#" xmlns:rdf="http://www.w3.org/1999/02/22-rdf-syntax-ns#" xmlns:svg="http://www.w3.org/2000/svg" xmlns="http://www.w3.org/2000/svg" xmlns:xlink="http://www.w3.org/1999/xlink" xmlns:sodipodi="http://sodipodi.sourceforge.net/DTD/sodipodi-0.dtd" xmlns:inkscape="http://www.inkscape.org/namespaces/inkscape" height="400" width="560" version="1.1" id="svg2" inkscape:version="0.91 r13725" sodipodi:docname="M2_Edge_Connector_Keying.svg">
  <sodipodi:namedview pagecolor="#ffffff" bordercolor="#666666" borderopacity="1" objecttolerance="10" gridtolerance="10" guidetolerance="10" inkscape:pageopacity="0" inkscape:pageshadow="2" inkscape:window-width="1366" inkscape:window-height="716" id="namedview535" showgrid="false" inkscape:zoom="1.3725" inkscape:cx="280" inkscape:cy="200" inkscape:window-x="-8" inkscape:window-y="-8" inkscape:window-maximized="1" inkscape:current-layer="svg2" showguides="true" inkscape:guide-bbox="true"/>
  <defs id="defs4"/>
  <metadata id="metadata6">
    <rdf:RDF>
      <cc:Work rdf:about="">
        <dc:format>image/svg+xml</dc:format>
        <dc:type rdf:resource="http://purl.org/dc/dcmitype/StillImage"/>
        <dc:title/>
      </cc:Work>
    </rdf:RDF>
  </metadata>
  <g id="g10" transform="matrix(-1,0,0,1,303.66622,123.99999)">
    <path style="fill:#000000" inkscape:connector-curvature="0" id="path12" d="m 36.666668,-94.99999 0,65 249.000002,0 0,-65 -249.000002,0 z m 11,12 169.062502,0 0,41 -169.062502,0 0,-41 z m 192.000002,0 34,0 0,41 -34,0 0,-41 z"/>
    <path inkscape:connector-curvature="0" stroke-miterlimit="4" d="m 49.666668,-82.99999 0,18" style="color:#000000;fill:none;stroke:#f3c13c;stroke-width:4;stroke-linecap:butt;stroke-linejoin:miter;stroke-miterlimit:4;stroke-dasharray:none;stroke-dashoffset:0;enable-background:accumulate" id="path4127"/>
    <use id="use15" x="0" y="0" width="540" height="400" transform="translate(6,0)" xlink:href="#path4127"/>
    <use id="use17" x="0" y="0" width="540" height="400" transform="translate(12,0)" xlink:href="#path4127"/>
    <use id="use19" x="0" y="0" width="540" height="400" transform="translate(18,0)" xlink:href="#path4127"/>
    <use id="use21" x="0" y="0" width="540" height="400" transform="translate(24,0)" xlink:href="#path4127"/>
    <use id="use23" x="0" y="0" width="540" height="400" transform="translate(30,0)" xlink:href="#path4127"/>
    <use id="use25" x="0" y="0" width="540" height="400" transform="translate(36,0)" xlink:href="#path4127"/>
    <use id="use27" x="0" y="0" width="540" height="400" transform="translate(42,0)" xlink:href="#path4127"/>
    <use id="use29" x="0" y="0" width="540" height="400" transform="translate(48,0)" xlink:href="#path4127"/>
    <use id="use31" x="0" y="0" width="540" height="400" transform="translate(54,0)" xlink:href="#path4127"/>
    <use id="use33" x="0" y="0" width="540" height="400" transform="translate(60,0)" xlink:href="#path4127"/>
    <use id="use35" x="0" y="0" width="540" height="400" transform="translate(66,0)" xlink:href="#path4127"/>
    <use id="use37" x="0" y="0" width="540" height="400" transform="translate(72,0)" xlink:href="#path4127"/>
    <use id="use39" x="0" y="0" width="540" height="400" transform="translate(78,0)" xlink:href="#path4127"/>
    <use id="use41" x="0" y="0" width="540" height="400" transform="translate(84,0)" xlink:href="#path4127"/>
    <use id="use43" x="0" y="0" width="540" height="400" transform="translate(90,0)" xlink:href="#path4127"/>
    <use id="use45" x="0" y="0" width="540" height="400" transform="translate(96,0)" xlink:href="#path4127"/>
    <use id="use47" x="0" y="0" width="540" height="400" transform="translate(102,0)" xlink:href="#path4127"/>
    <use id="use49" x="0" y="0" width="540" height="400" transform="translate(108,0)" xlink:href="#path4127"/>
    <use id="use51" x="0" y="0" width="540" height="400" transform="translate(114,0)" xlink:href="#path4127"/>
    <use id="use53" x="0" y="0" width="540" height="400" transform="translate(120,0)" xlink:href="#path4127"/>
    <use id="use55" x="0" y="0" width="540" height="400" transform="translate(126,0)" xlink:href="#path4127"/>
    <use id="use57" x="0" y="0" width="540" height="400" transform="translate(132,0)" xlink:href="#path4127"/>
    <use id="use59" x="0" y="0" width="540" height="400" transform="translate(138,0)" xlink:href="#path4127"/>
    <use id="use61" x="0" y="0" width="540" height="400" transform="translate(144,0)" xlink:href="#path4127"/>
    <use id="use63" x="0" y="0" width="540" height="400" transform="translate(150,0)" xlink:href="#path4127"/>
    <use id="use65" x="0" y="0" width="540" height="400" transform="translate(3,23)" xlink:href="#path4127"/>
    <use id="use67" x="0" y="0" width="540" height="400" transform="translate(9,23)" xlink:href="#path4127"/>
    <use id="use69" x="0" y="0" width="540" height="400" transform="translate(15,23)" xlink:href="#path4127"/>
    <use id="use71" x="0" y="0" width="540" height="400" transform="translate(21,23)" xlink:href="#path4127"/>
    <use id="use73" x="0" y="0" width="540" height="400" transform="translate(27,23)" xlink:href="#path4127"/>
    <use id="use75" x="0" y="0" width="540" height="400" transform="translate(33,23)" xlink:href="#path4127"/>
    <use id="use77" x="0" y="0" width="540" height="400" transform="translate(39,23)" xlink:href="#path4127"/>
    <use id="use79" x="0" y="0" width="540" height="400" transform="translate(45,23)" xlink:href="#path4127"/>
    <use id="use81" x="0" y="0" width="540" height="400" transform="translate(51,23)" xlink:href="#path4127"/>
    <use id="use83" x="0" y="0" width="540" height="400" transform="translate(57,23)" xlink:href="#path4127"/>
    <use id="use85" x="0" y="0" width="540" height="400" transform="translate(63,23)" xlink:href="#path4127"/>
    <use id="use87" x="0" y="0" width="540" height="400" transform="translate(69,23)" xlink:href="#path4127"/>
    <use id="use89" x="0" y="0" width="540" height="400" transform="translate(75,23)" xlink:href="#path4127"/>
    <use id="use91" x="0" y="0" width="540" height="400" transform="translate(81,23)" xlink:href="#path4127"/>
    <use id="use93" x="0" y="0" width="540" height="400" transform="translate(87,23)" xlink:href="#path4127"/>
    <use id="use95" x="0" y="0" width="540" height="400" transform="translate(93,23)" xlink:href="#path4127"/>
    <use id="use97" x="0" y="0" width="540" height="400" transform="translate(99,23)" xlink:href="#path4127"/>
    <use id="use99" x="0" y="0" width="540" height="400" transform="translate(105,23)" xlink:href="#path4127"/>
    <use id="use101" x="0" y="0" width="540" height="400" transform="translate(111,23)" xlink:href="#path4127"/>
    <use id="use103" x="0" y="0" width="540" height="400" transform="translate(117,23)" xlink:href="#path4127"/>
    <use id="use105" x="0" y="0" width="540" height="400" transform="translate(123,23)" xlink:href="#path4127"/>
    <use id="use107" x="0" y="0" width="540" height="400" transform="translate(129,23)" xlink:href="#path4127"/>
    <use id="use109" x="0" y="0" width="540" height="400" transform="translate(135,23)" xlink:href="#path4127"/>
    <use id="use111" x="0" y="0" width="540" height="400" transform="translate(141,23)" xlink:href="#path4127"/>
    <use id="use113" x="0" y="0" width="540" height="400" transform="translate(147,23)" xlink:href="#path4127"/>
    <use id="use115" x="0" y="0" width="540" height="400" transform="translate(156,0)" xlink:href="#path4127"/>
    <use id="use117" x="0" y="0" width="540" height="400" transform="translate(162,0)" xlink:href="#path4127"/>
    <use id="use119" x="0" y="0" width="540" height="400" transform="translate(153,23)" xlink:href="#path4127"/>
    <use id="use121" x="0" y="0" width="540" height="400" transform="translate(159,23)" xlink:href="#path4127"/>
    <use id="use123" x="0" y="0" width="540" height="400" transform="translate(165,23)" xlink:href="#path4127"/>
    <use id="use125" x="0" y="0" width="540" height="400" transform="translate(192,0)" xlink:href="#path4127"/>
    <use id="use127" x="0" y="0" width="540" height="400" transform="translate(198,0)" xlink:href="#path4127"/>
    <use id="use129" x="0" y="0" width="540" height="400" transform="translate(204,0)" xlink:href="#path4127"/>
    <use id="use131" x="0" y="0" width="540" height="400" transform="translate(210,0)" xlink:href="#path4127"/>
    <use id="use133" x="0" y="0" width="540" height="400" transform="translate(216,0)" xlink:href="#path4127"/>
    <use id="use135" x="0" y="0" width="540" height="400" transform="translate(222,0)" xlink:href="#path4127"/>
    <use id="use137" x="0" y="0" width="540" height="400" transform="translate(195,23)" xlink:href="#path4127"/>
    <use id="use139" x="0" y="0" width="540" height="400" transform="translate(201,23)" xlink:href="#path4127"/>
    <use id="use141" x="0" y="0" width="540" height="400" transform="translate(207,23)" xlink:href="#path4127"/>
    <use id="use143" x="0" y="0" width="540" height="400" transform="translate(213,23)" xlink:href="#path4127"/>
    <use id="use145" x="0" y="0" width="540" height="400" transform="translate(219,23)" xlink:href="#path4127"/>
  </g>
  <g id="g147" transform="matrix(-1,0,0,1,859.66623,123.99999)">
    <path style="fill:#000000" inkscape:connector-curvature="0" id="path149" d="m 563.66667,-94.99999 0,65 -249,0 0,-65 z m -11,12 -175.0625,0 0,41 175.0625,0 z m -198,0 -28,0 0,41 28,0 z"/>
    <use id="use151" x="0" y="0" width="540" height="400" transform="matrix(-1,0,0,1,594.33334,0)" xlink:href="#path4127"/>
    <use id="use153" x="0" y="0" width="540" height="400" transform="matrix(-1,0,0,1,588.33334,0)" xlink:href="#path4127"/>
    <use id="use155" x="0" y="0" width="540" height="400" transform="matrix(-1,0,0,1,582.33334,0)" xlink:href="#path4127"/>
    <use id="use157" x="0" y="0" width="540" height="400" transform="matrix(-1,0,0,1,576.33334,0)" xlink:href="#path4127"/>
    <use id="use159" x="0" y="0" width="540" height="400" transform="matrix(-1,0,0,1,570.33334,0)" xlink:href="#path4127"/>
    <use id="use161" x="0" y="0" width="540" height="400" transform="matrix(-1,0,0,1,564.33334,0)" xlink:href="#path4127"/>
    <use id="use163" x="0" y="0" width="540" height="400" transform="matrix(-1,0,0,1,558.33334,0)" xlink:href="#path4127"/>
    <use id="use165" x="0" y="0" width="540" height="400" transform="matrix(-1,0,0,1,552.33334,0)" xlink:href="#path4127"/>
    <use id="use167" x="0" y="0" width="540" height="400" transform="matrix(-1,0,0,1,546.33334,0)" xlink:href="#path4127"/>
    <use id="use169" x="0" y="0" width="540" height="400" transform="matrix(-1,0,0,1,540.33334,0)" xlink:href="#path4127"/>
    <use id="use171" x="0" y="0" width="540" height="400" transform="matrix(-1,0,0,1,534.33334,0)" xlink:href="#path4127"/>
    <use id="use173" x="0" y="0" width="540" height="400" transform="matrix(-1,0,0,1,528.33334,0)" xlink:href="#path4127"/>
    <use id="use175" x="0" y="0" width="540" height="400" transform="matrix(-1,0,0,1,522.33334,0)" xlink:href="#path4127"/>
    <use id="use177" x="0" y="0" width="540" height="400" transform="matrix(-1,0,0,1,516.33334,0)" xlink:href="#path4127"/>
    <use id="use179" x="0" y="0" width="540" height="400" transform="matrix(-1,0,0,1,510.33334,0)" xlink:href="#path4127"/>
    <use id="use181" x="0" y="0" width="540" height="400" transform="matrix(-1,0,0,1,504.33334,0)" xlink:href="#path4127"/>
    <use id="use183" x="0" y="0" width="540" height="400" transform="matrix(-1,0,0,1,498.33334,0)" xlink:href="#path4127"/>
    <use id="use185" x="0" y="0" width="540" height="400" transform="matrix(-1,0,0,1,492.33334,0)" xlink:href="#path4127"/>
    <use id="use187" x="0" y="0" width="540" height="400" transform="matrix(-1,0,0,1,486.33334,0)" xlink:href="#path4127"/>
    <use id="use189" x="0" y="0" width="540" height="400" transform="matrix(-1,0,0,1,480.33334,0)" xlink:href="#path4127"/>
    <use id="use191" x="0" y="0" width="540" height="400" transform="matrix(-1,0,0,1,474.33334,0)" xlink:href="#path4127"/>
    <use id="use193" x="0" y="0" width="540" height="400" transform="matrix(-1,0,0,1,468.33334,0)" xlink:href="#path4127"/>
    <use id="use195" x="0" y="0" width="540" height="400" transform="matrix(-1,0,0,1,462.33334,0)" xlink:href="#path4127"/>
    <use id="use197" x="0" y="0" width="540" height="400" transform="matrix(-1,0,0,1,456.33334,0)" xlink:href="#path4127"/>
    <use id="use199" x="0" y="0" width="540" height="400" transform="matrix(-1,0,0,1,450.33334,0)" xlink:href="#path4127"/>
    <use id="use201" x="0" y="0" width="540" height="400" transform="matrix(-1,0,0,1,591.33334,23)" xlink:href="#path4127"/>
    <use id="use203" x="0" y="0" width="540" height="400" transform="matrix(-1,0,0,1,585.33334,23)" xlink:href="#path4127"/>
    <use id="use205" x="0" y="0" width="540" height="400" transform="matrix(-1,0,0,1,579.33334,23)" xlink:href="#path4127"/>
    <use id="use207" x="0" y="0" width="540" height="400" transform="matrix(-1,0,0,1,573.33334,23)" xlink:href="#path4127"/>
    <use id="use209" x="0" y="0" width="540" height="400" transform="matrix(-1,0,0,1,567.33334,23)" xlink:href="#path4127"/>
    <use id="use211" x="0" y="0" width="540" height="400" transform="matrix(-1,0,0,1,561.33334,23)" xlink:href="#path4127"/>
    <use id="use213" x="0" y="0" width="540" height="400" transform="matrix(-1,0,0,1,555.33334,23)" xlink:href="#path4127"/>
    <use id="use215" x="0" y="0" width="540" height="400" transform="matrix(-1,0,0,1,549.33334,23)" xlink:href="#path4127"/>
    <use id="use217" x="0" y="0" width="540" height="400" transform="matrix(-1,0,0,1,543.33334,23)" xlink:href="#path4127"/>
    <use id="use219" x="0" y="0" width="540" height="400" transform="matrix(-1,0,0,1,537.33334,23)" xlink:href="#path4127"/>
    <use id="use221" x="0" y="0" width="540" height="400" transform="matrix(-1,0,0,1,531.33334,23)" xlink:href="#path4127"/>
    <use id="use223" x="0" y="0" width="540" height="400" transform="matrix(-1,0,0,1,525.33334,23)" xlink:href="#path4127"/>
    <use id="use225" x="0" y="0" width="540" height="400" transform="matrix(-1,0,0,1,519.33334,23)" xlink:href="#path4127"/>
    <use id="use227" x="0" y="0" width="540" height="400" transform="matrix(-1,0,0,1,513.33334,23)" xlink:href="#path4127"/>
    <use id="use229" x="0" y="0" width="540" height="400" transform="matrix(-1,0,0,1,507.33334,23)" xlink:href="#path4127"/>
    <use id="use231" x="0" y="0" width="540" height="400" transform="matrix(-1,0,0,1,501.33334,23)" xlink:href="#path4127"/>
    <use id="use233" x="0" y="0" width="540" height="400" transform="matrix(-1,0,0,1,495.33334,23)" xlink:href="#path4127"/>
    <use id="use235" x="0" y="0" width="540" height="400" transform="matrix(-1,0,0,1,489.33334,23)" xlink:href="#path4127"/>
    <use id="use237" x="0" y="0" width="540" height="400" transform="matrix(-1,0,0,1,483.33334,23)" xlink:href="#path4127"/>
    <use id="use239" x="0" y="0" width="540" height="400" transform="matrix(-1,0,0,1,477.33334,23)" xlink:href="#path4127"/>
    <use id="use241" x="0" y="0" width="540" height="400" transform="matrix(-1,0,0,1,471.33334,23)" xlink:href="#path4127"/>
    <use id="use243" x="0" y="0" width="540" height="400" transform="matrix(-1,0,0,1,465.33334,23)" xlink:href="#path4127"/>
    <use id="use245" x="0" y="0" width="540" height="400" transform="matrix(-1,0,0,1,459.33334,23)" xlink:href="#path4127"/>
    <use id="use247" x="0" y="0" width="540" height="400" transform="matrix(-1,0,0,1,453.33334,23)" xlink:href="#path4127"/>
    <use id="use249" x="0" y="0" width="540" height="400" transform="matrix(-1,0,0,1,444.33334,0)" xlink:href="#path4127"/>
    <use id="use251" x="0" y="0" width="540" height="400" transform="matrix(-1,0,0,1,438.33334,0)" xlink:href="#path4127"/>
    <use id="use253" x="0" y="0" width="540" height="400" transform="matrix(-1,0,0,1,447.33334,23)" xlink:href="#path4127"/>
    <use id="use255" x="0" y="0" width="540" height="400" transform="matrix(-1,0,0,1,441.33334,23)" xlink:href="#path4127"/>
    <use id="use257" x="0" y="0" width="540" height="400" transform="matrix(-1,0,0,1,435.33334,23)" xlink:href="#path4127"/>
    <use id="use259" x="0" y="0" width="540" height="400" transform="matrix(-1,0,0,1,432.33334,0)" xlink:href="#path4127"/>
    <use id="use261" x="0" y="0" width="540" height="400" transform="matrix(-1,0,0,1,402.33334,0)" xlink:href="#path4127"/>
    <use id="use263" x="0" y="0" width="540" height="400" transform="matrix(-1,0,0,1,396.33334,0)" xlink:href="#path4127"/>
    <use id="use265" x="0" y="0" width="540" height="400" transform="matrix(-1,0,0,1,390.33334,0)" xlink:href="#path4127"/>
    <use id="use267" x="0" y="0" width="540" height="400" transform="matrix(-1,0,0,1,384.33334,0)" xlink:href="#path4127"/>
    <use id="use269" x="0" y="0" width="540" height="400" transform="matrix(-1,0,0,1,378.33334,0)" xlink:href="#path4127"/>
    <use id="use271" x="0" y="0" width="540" height="400" transform="matrix(-1,0,0,1,429.33334,23)" xlink:href="#path4127"/>
    <use id="use273" x="0" y="0" width="540" height="400" transform="matrix(-1,0,0,1,399.33334,23)" xlink:href="#path4127"/>
    <use id="use275" x="0" y="0" width="540" height="400" transform="matrix(-1,0,0,1,393.33334,23)" xlink:href="#path4127"/>
    <use id="use277" x="0" y="0" width="540" height="400" transform="matrix(-1,0,0,1,387.33334,23)" xlink:href="#path4127"/>
    <use id="use279" x="0" y="0" width="540" height="400" transform="matrix(-1,0,0,1,381.33334,23)" xlink:href="#path4127"/>
    <use id="use281" x="0" y="0" width="540" height="400" transform="matrix(-1,0,0,1,600.33334,0)" xlink:href="#path4127"/>
    <use id="use283" x="0" y="0" width="540" height="400" transform="matrix(-1,0,0,1,597.33334,23)" xlink:href="#path4127"/>
  </g>
  <path style="color:#000000;fill:#609d28;stroke:#609d28;stroke-width:1;stroke-linecap:butt;stroke-linejoin:round;stroke-miterlimit:4;stroke-dasharray:none;stroke-dashoffset:0;enable-background:accumulate" d="m 255.99955,228.00037 -104,0 -5,9.99963 -10,-20 -5,10.00037 -107,0 0,-65 38,0 0,20 21,0 0,-20 172,0 z" stroke-miterlimit="4" id="path287" inkscape:connector-curvature="0" sodipodi:nodetypes="ccccccccccccc"/>
  <use xlink:href="#path4127" transform="matrix(-1,0,0,1,294.66622,248.00036)" height="400" width="540" y="0" x="0" id="use289"/>
  <use xlink:href="#path4127" transform="matrix(-1,0,0,1,288.66622,248.00036)" height="400" width="540" y="0" x="0" id="use291"/>
  <use xlink:href="#path4127" transform="matrix(-1,0,0,1,282.66622,248.00036)" height="400" width="540" y="0" x="0" id="use293"/>
  <use xlink:href="#path4127" transform="matrix(-1,0,0,1,276.66622,248.00036)" height="400" width="540" y="0" x="0" id="use295"/>
  <use xlink:href="#path4127" transform="matrix(-1,0,0,1,270.66622,248.00036)" height="400" width="540" y="0" x="0" id="use297"/>
  <use xlink:href="#path4127" transform="matrix(-1,0,0,1,264.66622,248.00036)" height="400" width="540" y="0" x="0" id="use299"/>
  <use xlink:href="#path4127" transform="matrix(-1,0,0,1,258.66622,248.00036)" height="400" width="540" y="0" x="0" id="use301"/>
  <use xlink:href="#path4127" transform="matrix(-1,0,0,1,252.66622,248.00036)" height="400" width="540" y="0" x="0" id="use303"/>
  <use xlink:href="#path4127" transform="matrix(-1,0,0,1,246.66622,248.00036)" height="400" width="540" y="0" x="0" id="use305"/>
  <use xlink:href="#path4127" transform="matrix(-1,0,0,1,240.66622,248.00036)" height="400" width="540" y="0" x="0" id="use307"/>
  <use xlink:href="#path4127" transform="matrix(-1,0,0,1,234.66622,248.00036)" height="400" width="540" y="0" x="0" id="use309"/>
  <use xlink:href="#path4127" transform="matrix(-1,0,0,1,228.66622,248.00036)" height="400" width="540" y="0" x="0" id="use311"/>
  <use xlink:href="#path4127" transform="matrix(-1,0,0,1,222.66622,248.00036)" height="400" width="540" y="0" x="0" id="use313"/>
  <use xlink:href="#path4127" transform="matrix(-1,0,0,1,216.66622,248.00036)" height="400" width="540" y="0" x="0" id="use315"/>
  <use xlink:href="#path4127" transform="matrix(-1,0,0,1,210.66622,248.00036)" height="400" width="540" y="0" x="0" id="use317"/>
  <use xlink:href="#path4127" transform="matrix(-1,0,0,1,204.66622,248.00036)" height="400" width="540" y="0" x="0" id="use319"/>
  <use xlink:href="#path4127" transform="matrix(-1,0,0,1,198.66622,248.00036)" height="400" width="540" y="0" x="0" id="use321"/>
  <use xlink:href="#path4127" transform="matrix(-1,0,0,1,192.66622,248.00036)" height="400" width="540" y="0" x="0" id="use323"/>
  <use xlink:href="#path4127" transform="matrix(-1,0,0,1,186.66622,248.00036)" height="400" width="540" y="0" x="0" id="use325"/>
  <use xlink:href="#path4127" transform="matrix(-1,0,0,1,180.66622,248.00036)" height="400" width="540" y="0" x="0" id="use327"/>
  <use xlink:href="#path4127" transform="matrix(-1,0,0,1,174.66622,248.00036)" height="400" width="540" y="0" x="0" id="use329"/>
  <use xlink:href="#path4127" transform="matrix(-1,0,0,1,168.66622,248.00036)" height="400" width="540" y="0" x="0" id="use331"/>
  <use xlink:href="#path4127" transform="matrix(-1,0,0,1,162.66622,248.00036)" height="400" width="540" y="0" x="0" id="use333"/>
  <use xlink:href="#path4127" transform="matrix(-1,0,0,1,156.66622,248.00036)" height="400" width="540" y="0" x="0" id="use335"/>
  <use xlink:href="#path4127" transform="matrix(-1,0,0,1,150.66622,248.00036)" height="400" width="540" y="0" x="0" id="use337"/>
  <use xlink:href="#path4127" transform="matrix(-1,0,0,1,144.66622,248.00036)" height="400" width="540" y="0" x="0" id="use339"/>
  <use xlink:href="#path4127" transform="matrix(-1,0,0,1,138.66622,248.00036)" height="400" width="540" y="0" x="0" id="use341"/>
  <use xlink:href="#path4127" transform="matrix(-1,0,0,1,108.66622,248.00036)" height="400" width="540" y="0" x="0" id="use343"/>
  <use xlink:href="#path4127" transform="matrix(-1,0,0,1,102.66622,248.00036)" height="400" width="540" y="0" x="0" id="use345"/>
  <use xlink:href="#path4127" transform="matrix(-1,0,0,1,96.66622,248.00036)" height="400" width="540" y="0" x="0" id="use347"/>
  <use xlink:href="#path4127" transform="matrix(-1,0,0,1,90.66622,248.00036)" height="400" width="540" y="0" x="0" id="use349"/>
  <use xlink:href="#path4127" transform="matrix(-1,0,0,1,84.66622,248.00036)" height="400" width="540" y="0" x="0" id="use351"/>
  <use xlink:href="#path4127" transform="matrix(-1,0,0,1,78.66622,248.00036)" height="400" width="540" y="0" x="0" id="use353"/>
  <use xlink:href="#path4127" transform="matrix(-1,0,0,1,300.66622,248.00036)" height="400" width="540" y="0" x="0" id="use355"/>
  <path sodipodi:nodetypes="ccccccccccccc" style="color:#000000;fill:#609d28;stroke:#609d28;stroke-width:1;stroke-linecap:butt;stroke-linejoin:round;stroke-miterlimit:4;stroke-dasharray:none;stroke-dashoffset:0;enable-background:accumulate" d="m 536.99955,228.00037 -104,0 -5,9.99963 -10,-20 -5,10.00037 -107,0 0,-65 178,0 0,20 21,0 0,-20 32,0 z" stroke-miterlimit="4" id="path359" inkscape:connector-curvature="0"/>
  <use xlink:href="#path4127" transform="translate(267.33288,248.00036)" height="400" width="540" y="0" x="0" id="use361"/>
  <use xlink:href="#path4127" transform="translate(273.33288,248.00036)" height="400" width="540" y="0" x="0" id="use363"/>
  <use xlink:href="#path4127" transform="translate(279.33288,248.00036)" height="400" width="540" y="0" x="0" id="use365"/>
  <use xlink:href="#path4127" transform="translate(285.33288,248.00036)" height="400" width="540" y="0" x="0" id="use367"/>
  <use xlink:href="#path4127" transform="translate(291.33288,248.00036)" height="400" width="540" y="0" x="0" id="use369"/>
  <use xlink:href="#path4127" transform="translate(297.33288,248.00036)" height="400" width="540" y="0" x="0" id="use371"/>
  <use xlink:href="#path4127" transform="translate(303.33288,248.00036)" height="400" width="540" y="0" x="0" id="use373"/>
  <use xlink:href="#path4127" transform="translate(309.33288,248.00036)" height="400" width="540" y="0" x="0" id="use375"/>
  <use xlink:href="#path4127" transform="translate(315.33288,248.00036)" height="400" width="540" y="0" x="0" id="use377"/>
  <use xlink:href="#path4127" transform="translate(321.33288,248.00036)" height="400" width="540" y="0" x="0" id="use379"/>
  <use xlink:href="#path4127" transform="translate(327.33288,248.00036)" height="400" width="540" y="0" x="0" id="use381"/>
  <use xlink:href="#path4127" transform="translate(333.33288,248.00036)" height="400" width="540" y="0" x="0" id="use383"/>
  <use xlink:href="#path4127" transform="translate(339.33288,248.00036)" height="400" width="540" y="0" x="0" id="use385"/>
  <use xlink:href="#path4127" transform="translate(345.33288,248.00036)" height="400" width="540" y="0" x="0" id="use387"/>
  <use xlink:href="#path4127" transform="translate(351.33288,248.00036)" height="400" width="540" y="0" x="0" id="use389"/>
  <use xlink:href="#path4127" transform="translate(357.33288,248.00036)" height="400" width="540" y="0" x="0" id="use391"/>
  <use xlink:href="#path4127" transform="translate(363.33288,248.00036)" height="400" width="540" y="0" x="0" id="use393"/>
  <use xlink:href="#path4127" transform="translate(369.33288,248.00036)" height="400" width="540" y="0" x="0" id="use395"/>
  <use xlink:href="#path4127" transform="translate(375.33288,248.00036)" height="400" width="540" y="0" x="0" id="use397"/>
  <use xlink:href="#path4127" transform="translate(381.33288,248.00036)" height="400" width="540" y="0" x="0" id="use399"/>
  <use xlink:href="#path4127" transform="translate(387.33288,248.00036)" height="400" width="540" y="0" x="0" id="use401"/>
  <use xlink:href="#path4127" transform="translate(393.33288,248.00036)" height="400" width="540" y="0" x="0" id="use403"/>
  <use xlink:href="#path4127" transform="translate(399.33288,248.00036)" height="400" width="540" y="0" x="0" id="use405"/>
  <use xlink:href="#path4127" transform="translate(405.33288,248.00036)" height="400" width="540" y="0" x="0" id="use407"/>
  <use xlink:href="#path4127" transform="translate(411.33288,248.00036)" height="400" width="540" y="0" x="0" id="use409"/>
  <use xlink:href="#path4127" transform="translate(417.33288,248.00036)" height="400" width="540" y="0" x="0" id="use411"/>
  <use xlink:href="#path4127" transform="translate(423.33288,248.00036)" height="400" width="540" y="0" x="0" id="use413"/>
  <use xlink:href="#path4127" transform="translate(429.33288,248.00036)" height="400" width="540" y="0" x="0" id="use415"/>
  <use xlink:href="#path4127" transform="translate(459.33288,248.00036)" height="400" width="540" y="0" x="0" id="use417"/>
  <use xlink:href="#path4127" transform="translate(465.33288,248.00036)" height="400" width="540" y="0" x="0" id="use419"/>
  <use xlink:href="#path4127" transform="translate(471.33288,248.00036)" height="400" width="540" y="0" x="0" id="use421"/>
  <use xlink:href="#path4127" transform="translate(477.33288,248.00036)" height="400" width="540" y="0" x="0" id="use423"/>
  <use xlink:href="#path4127" transform="translate(483.33288,248.00036)" height="400" width="540" y="0" x="0" id="use425"/>
  <use xlink:href="#path4127" transform="translate(261.33288,248.00036)" height="400" width="540" y="0" x="0" id="use427"/>
  <path style="color:#000000;fill:#609d28;stroke:#609d28;stroke-width:1;stroke-linecap:butt;stroke-linejoin:round;stroke-miterlimit:4;stroke-dasharray:none;stroke-dashoffset:0;enable-background:accumulate" d="m 393.49956,283.00037 0,65 -104,0 -5,9.99963 -10,-20 -5,10.00037 -107,0 0,-65 39,0 0,20 21,0 0,-20 118,0 0,20 21,0 0,-20 z" stroke-miterlimit="4" id="path431" inkscape:connector-curvature="0" sodipodi:nodetypes="ccccccccccccccccc"/>
  <use xlink:href="#path4127" transform="translate(123.83289,368.00036)" height="400" width="540" y="0" x="0" id="use433"/>
  <use xlink:href="#path4127" transform="translate(129.83289,368.00036)" height="400" width="540" y="0" x="0" id="use435"/>
  <use xlink:href="#path4127" transform="translate(135.83289,368.00036)" height="400" width="540" y="0" x="0" id="use437"/>
  <use xlink:href="#path4127" transform="translate(141.83289,368.00036)" height="400" width="540" y="0" x="0" id="use439"/>
  <use xlink:href="#path4127" transform="translate(147.83289,368.00036)" height="400" width="540" y="0" x="0" id="use441"/>
  <use xlink:href="#path4127" transform="translate(177.83289,368.00036)" height="400" width="540" y="0" x="0" id="use443"/>
  <use xlink:href="#path4127" transform="translate(183.83289,368.00036)" height="400" width="540" y="0" x="0" id="use445"/>
  <use xlink:href="#path4127" transform="translate(189.83289,368.00036)" height="400" width="540" y="0" x="0" id="use447"/>
  <use xlink:href="#path4127" transform="translate(195.83289,368.00036)" height="400" width="540" y="0" x="0" id="use449"/>
  <use xlink:href="#path4127" transform="translate(201.83289,368.00036)" height="400" width="540" y="0" x="0" id="use451"/>
  <use xlink:href="#path4127" transform="translate(207.83289,368.00036)" height="400" width="540" y="0" x="0" id="use453"/>
  <use xlink:href="#path4127" transform="translate(213.83289,368.00036)" height="400" width="540" y="0" x="0" id="use455"/>
  <use xlink:href="#path4127" transform="translate(219.83289,368.00036)" height="400" width="540" y="0" x="0" id="use457"/>
  <use xlink:href="#path4127" transform="translate(225.83289,368.00036)" height="400" width="540" y="0" x="0" id="use459"/>
  <use xlink:href="#path4127" transform="translate(231.83289,368.00036)" height="400" width="540" y="0" x="0" id="use461"/>
  <use xlink:href="#path4127" transform="translate(237.83289,368.00036)" height="400" width="540" y="0" x="0" id="use463"/>
  <use xlink:href="#path4127" transform="translate(243.83289,368.00036)" height="400" width="540" y="0" x="0" id="use465"/>
  <use xlink:href="#path4127" transform="translate(249.83289,368.00036)" height="400" width="540" y="0" x="0" id="use467"/>
  <use xlink:href="#path4127" transform="translate(255.83289,368.00036)" height="400" width="540" y="0" x="0" id="use469"/>
  <use xlink:href="#path4127" transform="translate(261.83289,368.00036)" height="400" width="540" y="0" x="0" id="use471"/>
  <use xlink:href="#path4127" transform="translate(267.83289,368.00036)" height="400" width="540" y="0" x="0" id="use473"/>
  <use xlink:href="#path4127" transform="translate(273.83289,368.00036)" height="400" width="540" y="0" x="0" id="use475"/>
  <use xlink:href="#path4127" transform="translate(279.83289,368.00036)" height="400" width="540" y="0" x="0" id="use477"/>
  <use xlink:href="#path4127" transform="translate(285.83289,368.00036)" height="400" width="540" y="0" x="0" id="use479"/>
  <use xlink:href="#path4127" transform="translate(315.83289,368.00036)" height="400" width="540" y="0" x="0" id="use481"/>
  <use xlink:href="#path4127" transform="translate(321.83289,368.00036)" height="400" width="540" y="0" x="0" id="use483"/>
  <use xlink:href="#path4127" transform="translate(327.83289,368.00036)" height="400" width="540" y="0" x="0" id="use485"/>
  <use xlink:href="#path4127" transform="translate(333.83289,368.00036)" height="400" width="540" y="0" x="0" id="use487"/>
  <use xlink:href="#path4127" transform="translate(339.83289,368.00036)" height="400" width="540" y="0" x="0" id="use489"/>
  <use xlink:href="#path4127" transform="translate(117.83289,368.00036)" height="400" width="540" y="0" x="0" id="use491"/>
  <text sodipodi:linespacing="125%" id="text493" line-height="125%" x="373.99957" y="379.00037" font-variant="normal" font-stretch="normal" font-style="normal" font-size="20px" xml:space="preserve" font-weight="normal" style="font-style:normal;font-variant:normal;font-weight:normal;font-stretch:normal;font-size:15.625px;line-height:125%;font-family:Arial;-inkscape-font-specification:'Arial, Normal';text-align:end;letter-spacing:0px;word-spacing:0px;writing-mode:lr-tb;text-anchor:end;fill:#000000"><tspan style="font-style:normal;font-variant:normal;font-weight:normal;font-stretch:normal;font-size:15.625px;line-height:125%;font-family:Arial;-inkscape-font-specification:'Arial, Normal';text-align:end;writing-mode:lr-tb;text-anchor:end" id="tspan495" x="373.99957" y="379.00037" font-variant="normal" font-stretch="normal" font-style="normal" font-size="16px" font-weight="bold">"B &amp; M key" edge connector</tspan></text>
  <text sodipodi:linespacing="125%" id="text497" xml:space="preserve" x="218.99956" y="259.00037" font-variant="normal" font-stretch="normal" font-style="normal" font-size="20px" font-weight="normal" line-height="125%" style="font-style:normal;font-variant:normal;font-weight:normal;font-stretch:normal;font-size:15.625px;line-height:125%;font-family:Arial;-inkscape-font-specification:'Arial, Normal';text-align:end;letter-spacing:0px;word-spacing:0px;writing-mode:lr-tb;text-anchor:end;fill:#000000"><tspan style="font-style:normal;font-variant:normal;font-weight:normal;font-stretch:normal;font-size:15.625px;line-height:125%;font-family:Arial;-inkscape-font-specification:'Arial, Normal';text-align:end;writing-mode:lr-tb;text-anchor:end" id="tspan499" x="218.99956" y="259.00037" font-variant="normal" font-stretch="normal" font-style="normal" font-size="16px" font-weight="bold">"B key" edge connector</tspan></text>
  <text sodipodi:linespacing="125%" id="text501" line-height="125%" x="501.99957" y="259.00037" font-variant="normal" font-stretch="normal" font-style="normal" font-size="20px" xml:space="preserve" font-weight="normal" style="font-style:normal;font-variant:normal;font-weight:normal;font-stretch:normal;font-size:15.625px;line-height:125%;font-family:Arial;-inkscape-font-specification:'Arial, Normal';text-align:end;letter-spacing:0px;word-spacing:0px;writing-mode:lr-tb;text-anchor:end;fill:#000000"><tspan style="font-style:normal;font-variant:normal;font-weight:normal;font-stretch:normal;font-size:15.625px;line-height:125%;font-family:Arial;-inkscape-font-specification:'Arial, Normal';text-align:end;writing-mode:lr-tb;text-anchor:end" id="tspan503" x="501.99957" y="259.00037" font-variant="normal" font-stretch="normal" font-style="normal" font-size="16px" font-weight="bold">"M key" edge connector</tspan></text>
  <text sodipodi:linespacing="125%" id="text505" line-height="125%" x="258.99957" y="116" font-variant="normal" font-stretch="normal" font-style="normal" font-size="20px" xml:space="preserve" font-weight="normal" style="font-style:normal;font-variant:normal;font-weight:normal;font-stretch:normal;font-size:15.625px;line-height:125%;font-family:Arial;-inkscape-font-specification:'Arial, Normal';text-align:end;letter-spacing:0px;word-spacing:0px;writing-mode:lr-tb;text-anchor:end;fill:#000000"><tspan style="font-style:normal;font-variant:normal;font-weight:normal;font-stretch:normal;font-size:15.625px;line-height:125%;font-family:Arial;-inkscape-font-specification:'Arial, Normal';text-align:end;writing-mode:lr-tb;text-anchor:end" id="tspan507" x="258.99957" y="116" font-variant="normal" font-stretch="normal" font-style="normal" font-size="16px" font-weight="bold">Socket for "B key" edge connector</tspan></text>
  <text sodipodi:linespacing="125%" id="text509" xml:space="preserve" x="539.99957" y="116" font-variant="normal" font-stretch="normal" font-style="normal" font-size="20px" font-weight="normal" line-height="125%" style="font-style:normal;font-variant:normal;font-weight:normal;font-stretch:normal;font-size:15.625px;line-height:125%;font-family:Arial;-inkscape-font-specification:'Arial, Normal';text-align:end;letter-spacing:0px;word-spacing:0px;writing-mode:lr-tb;text-anchor:end;fill:#000000"><tspan style="font-style:normal;font-variant:normal;font-weight:normal;font-stretch:normal;font-size:15.625px;line-height:125%;font-family:Arial;-inkscape-font-specification:'Arial, Normal';text-align:end;writing-mode:lr-tb;text-anchor:end" id="tspan511" x="539.99957" y="116" font-variant="normal" font-stretch="normal" font-style="normal" font-size="16px" font-weight="bold">Socket for "M key" edge connector</tspan></text>
  <text sodipodi:linespacing="125%" id="text513" xml:space="preserve" x="115.4856" y="20.806894" font-variant="normal" font-stretch="normal" font-style="normal" font-size="14px" font-weight="normal" line-height="125%" style="font-style:normal;font-variant:normal;font-weight:normal;font-stretch:normal;font-size:15px;line-height:125%;font-family:Arial;-inkscape-font-specification:'Arial, Normal';text-align:end;letter-spacing:0px;word-spacing:0px;writing-mode:lr-tb;text-anchor:end;fill:#39a2d7"><tspan id="tspan515" x="115.4856" y="20.806894" font-variant="normal" font-stretch="normal" font-style="normal" font-size="14px" font-weight="bold" style="font-style:normal;font-variant:normal;font-weight:normal;font-stretch:normal;font-size:15px;line-height:125%;font-family:Arial;-inkscape-font-specification:'Arial, Normal';text-align:end;writing-mode:lr-tb;text-anchor:end;fill:#39a2d7">6 contacts wide</tspan></text>
  <text sodipodi:linespacing="125%" id="text517" line-height="125%" x="551.39624" y="20.807102" font-variant="normal" font-stretch="normal" font-style="normal" font-size="14px" xml:space="preserve" font-weight="normal" style="font-style:normal;font-variant:normal;font-weight:normal;font-stretch:normal;font-size:15px;line-height:125%;font-family:Arial;-inkscape-font-specification:'Arial, Normal';text-align:end;letter-spacing:0px;word-spacing:0px;writing-mode:lr-tb;text-anchor:end;fill:#39a2d7"><tspan id="tspan519" x="551.39624" y="20.807102" font-variant="normal" font-stretch="normal" font-style="normal" font-size="14px" font-weight="bold" style="font-style:normal;font-variant:normal;font-weight:normal;font-stretch:normal;font-size:15px;line-height:125%;font-family:Arial;-inkscape-font-specification:'Arial, Normal';text-align:end;writing-mode:lr-tb;text-anchor:end;fill:#39a2d7">5 contacts wide</tspan></text>
  <text sodipodi:linespacing="125%" id="text521" line-height="125%" x="87.552628" y="143.37604" font-variant="normal" font-stretch="normal" font-style="normal" font-size="14px" xml:space="preserve" font-weight="normal" style="font-style:normal;font-variant:normal;font-weight:normal;font-stretch:normal;font-size:15px;line-height:125%;font-family:Arial;-inkscape-font-specification:'Arial, Normal';text-align:end;letter-spacing:0px;word-spacing:0px;writing-mode:lr-tb;text-anchor:end;fill:#39a2d7"><tspan id="tspan523" x="87.552628" y="143.37604" font-variant="normal" font-stretch="normal" font-style="normal" font-size="14px" font-weight="bold" style="font-style:normal;font-variant:normal;font-weight:normal;font-stretch:normal;font-size:15px;line-height:125%;font-family:Arial;-inkscape-font-specification:'Arial, Normal';text-align:end;writing-mode:lr-tb;text-anchor:end;fill:#39a2d7">6 pins wide</tspan></text>
  <text sodipodi:linespacing="125%" id="text525" xml:space="preserve" x="547.97723" y="143.37604" font-variant="normal" font-stretch="normal" font-style="normal" font-size="14px" font-weight="normal" line-height="125%" style="font-style:normal;font-variant:normal;font-weight:normal;font-stretch:normal;font-size:15px;line-height:125%;font-family:Arial;-inkscape-font-specification:'Arial, Normal';text-align:end;letter-spacing:0px;word-spacing:0px;writing-mode:lr-tb;text-anchor:end;fill:#39a2d7"><tspan id="tspan527" x="547.97723" y="143.37604" font-variant="normal" font-stretch="normal" font-style="normal" font-size="14px" font-weight="bold" style="font-style:normal;font-variant:normal;font-weight:normal;font-stretch:normal;font-size:15px;line-height:125%;font-family:Arial;-inkscape-font-specification:'Arial, Normal';text-align:end;writing-mode:lr-tb;text-anchor:end;fill:#39a2d7">5 pins wide</tspan></text>
  <path inkscape:connector-curvature="0" stroke-miterlimit="4" d="m 69.262132,41.824022 c 0,0 0,-7 -3,-7 l -16,0 c -1.5,0 -3,-3.5 -3,-7.5 l 0,-2.500022 -0.100132,2.500022 c -0.160081,3.996795 -1.399868,7.5 -2.899868,7.5 l -16,0 c -3,0 -3,7 -3,7" style="color:#000000;fill:none;stroke:#39a2d7;stroke-width:2;stroke-linecap:butt;stroke-linejoin:miter;stroke-miterlimit:4;stroke-dasharray:none;stroke-dashoffset:0;enable-background:accumulate" id="path5991" sodipodi:nodetypes="cssscsssc"/>
  <path inkscape:connector-curvature="0" stroke-miterlimit="4" d="m 538.198,41.50306 c 0,0 0,-7 -3,-7 l -13,0 c -1.5,0 -3,-3.5 -3,-7.5 l 0,-2.50006 0,2.50006 c 0,4 -1.5,7.5 -3,7.5 l -13,0 c -3,0 -3,7 -3,7" style="color:#000000;fill:none;stroke:#39a2d7;stroke-width:2;stroke-linecap:butt;stroke-linejoin:miter;stroke-miterlimit:4;stroke-dasharray:none;stroke-dashoffset:0;enable-background:accumulate" id="path6014" sodipodi:nodetypes="cssscsssc"/>
  <text sodipodi:linespacing="125%" id="text4392" y="194.52364" x="25.656855" style="font-style:normal;font-variant:normal;font-weight:normal;font-stretch:normal;font-size:10.60869598px;line-height:125%;font-family:Arial;-inkscape-font-specification:Arial;letter-spacing:0px;word-spacing:0px;fill:#000000;fill-opacity:1" xml:space="preserve"><tspan y="194.52364" x="25.656855" id="tspan4394" sodipodi:role="line">1</tspan></text>
  <text sodipodi:linespacing="125%" id="text4396" y="314.42252" x="163.49886" style="font-style:normal;font-variant:normal;font-weight:normal;font-stretch:normal;font-size:10.60869598px;line-height:125%;font-family:Arial;-inkscape-font-specification:Arial;letter-spacing:0px;word-spacing:0px;fill:#000000;fill-opacity:1" xml:space="preserve"><tspan y="314.42252" x="163.49886" id="tspan4398" sodipodi:role="line">1</tspan></text>
  <text sodipodi:linespacing="125%" id="text4400" y="314.42252" x="194.54486" style="font-style:normal;font-variant:normal;font-weight:normal;font-stretch:normal;font-size:10.60869598px;line-height:125%;font-family:Arial;-inkscape-font-specification:Arial;letter-spacing:0px;word-spacing:0px;fill:#000000;fill-opacity:1" xml:space="preserve"><tspan y="314.42252" x="194.54486" id="tspan4402" sodipodi:role="line">11</tspan></text>
  <text sodipodi:linespacing="125%" id="text4404" y="314.42252" x="218.52467" style="font-style:normal;font-variant:normal;font-weight:normal;font-stretch:normal;font-size:10.60869598px;line-height:125%;font-family:Arial;-inkscape-font-specification:Arial;letter-spacing:0px;word-spacing:0px;fill:#000000;fill-opacity:1" xml:space="preserve"><tspan y="314.42252" x="218.52467" id="tspan4406" sodipodi:role="line">21</tspan></text>
  <text sodipodi:linespacing="125%" id="text4408" y="314.29303" x="332.49069" style="font-style:normal;font-variant:normal;font-weight:normal;font-stretch:normal;font-size:10.60869598px;line-height:125%;font-family:Arial;-inkscape-font-specification:Arial;letter-spacing:0px;word-spacing:0px;fill:#000000;fill-opacity:1" xml:space="preserve"><tspan y="314.29303" x="332.49069" id="tspan4410" sodipodi:role="line">57</tspan></text>
  <text sodipodi:linespacing="125%" id="text4412" y="314.43921" x="356.06229" style="font-style:normal;font-variant:normal;font-weight:normal;font-stretch:normal;font-size:10.63126755px;line-height:125%;font-family:Arial;-inkscape-font-specification:Arial;letter-spacing:0px;word-spacing:0px;fill:#000000;fill-opacity:1" xml:space="preserve"><tspan y="314.43921" x="356.06229" id="tspan4414" sodipodi:role="line">67</tspan></text>
  <text sodipodi:linespacing="125%" id="text4416" y="314.29303" x="379.90155" style="font-style:normal;font-variant:normal;font-weight:normal;font-stretch:normal;font-size:10.60869598px;line-height:125%;font-family:Arial;-inkscape-font-specification:Arial;letter-spacing:0px;word-spacing:0px;fill:#000000;fill-opacity:1" xml:space="preserve"><tspan y="314.29303" x="379.90155" id="tspan4418" sodipodi:role="line">75</tspan></text>
  <text sodipodi:linespacing="125%" id="text4420" y="194.54062" x="522.45056" style="font-style:normal;font-variant:normal;font-weight:normal;font-stretch:normal;font-size:10.60869598px;line-height:125%;font-family:Arial;-inkscape-font-specification:Arial;letter-spacing:0px;word-spacing:0px;fill:#000000;fill-opacity:1" xml:space="preserve"><tspan y="194.54062" x="522.45056" id="tspan4422" sodipodi:role="line">75</tspan></text>
  <text sodipodi:linespacing="125%" id="text4424" y="194.54034" x="500.16928" style="font-style:normal;font-variant:normal;font-weight:normal;font-stretch:normal;font-size:10.63126755px;line-height:125%;font-family:Arial;-inkscape-font-specification:Arial;letter-spacing:0px;word-spacing:0px;fill:#000000;fill-opacity:1" xml:space="preserve"><tspan y="194.54034" x="500.16928" id="tspan4426" sodipodi:role="line">67</tspan></text>
  <text sodipodi:linespacing="125%" id="text4428" y="194.54062" x="476.5947" style="font-style:normal;font-variant:normal;font-weight:normal;font-stretch:normal;font-size:10.60869598px;line-height:125%;font-family:Arial;-inkscape-font-specification:Arial;letter-spacing:0px;word-spacing:0px;fill:#000000;fill-opacity:1" xml:space="preserve"><tspan y="194.54062" x="476.5947" id="tspan4430" sodipodi:role="line">57</tspan></text>
  <text sodipodi:linespacing="125%" id="text4432" y="194.67012" x="307.83685" style="font-style:normal;font-variant:normal;font-weight:normal;font-stretch:normal;font-size:10.60869598px;line-height:125%;font-family:Arial;-inkscape-font-specification:Arial;letter-spacing:0px;word-spacing:0px;fill:#000000;fill-opacity:1" xml:space="preserve"><tspan y="194.67012" x="307.83685" id="tspan4434" sodipodi:role="line">1</tspan></text>
  <text sodipodi:linespacing="125%" id="text4436" y="194.39413" x="241.48254" style="font-style:normal;font-variant:normal;font-weight:normal;font-stretch:normal;font-size:10.60869598px;line-height:125%;font-family:Arial;-inkscape-font-specification:Arial;letter-spacing:0px;word-spacing:0px;fill:#000000;fill-opacity:1;fill-rule:nonzero" xml:space="preserve"><tspan y="194.39413" x="241.48254" id="tspan4438" sodipodi:role="line">75</tspan></text>
  <text sodipodi:linespacing="125%" id="text4440" y="194.52364" x="80.246201" style="font-style:normal;font-variant:normal;font-weight:normal;font-stretch:normal;font-size:10.60869598px;line-height:125%;font-family:Arial;-inkscape-font-specification:Arial;letter-spacing:0px;word-spacing:0px;fill:#000000;fill-opacity:1" xml:space="preserve"><tspan y="194.52364" x="80.246201" id="tspan4442" sodipodi:role="line">21</tspan></text>
  <text sodipodi:linespacing="125%" id="text4444" y="194.52364" x="55.607853" style="font-style:normal;font-variant:normal;font-weight:normal;font-stretch:normal;font-size:10.60869598px;line-height:125%;font-family:Arial;-inkscape-font-specification:Arial;letter-spacing:0px;word-spacing:0px;fill:#000000;fill-opacity:1" xml:space="preserve"><tspan y="194.52364" x="55.607853" id="tspan4446" sodipodi:role="line">11</tspan></text>
  <path inkscape:connector-curvature="0" stroke-miterlimit="4" d="m 67.152527,164.36709 c 0,0 0,-7 -3.202187,-7 l -17.07833,0 c -1.601094,0 -3.202187,-3.5 -3.202187,-7.5 l 0,-2.50002 -0.106881,2.50002 c -0.17087,3.99679 -1.494213,7.5 -3.095306,7.5 l -17.078331,0 c -3.202187,0 -3.202187,7 -3.202187,7" style="color:#000000;fill:none;stroke:#39a2d7;stroke-width:2.06629682;stroke-linecap:butt;stroke-linejoin:miter;stroke-miterlimit:4;stroke-dasharray:none;stroke-dashoffset:0;enable-background:accumulate" id="path5991-1" sodipodi:nodetypes="cssscsssc"/>
  <path inkscape:connector-curvature="0" stroke-miterlimit="4" d="m 541.79041,164.19315 c 0,0 0,-7 -3.2376,-7 l -14.02959,0 c -1.61879,0 -3.23759,-3.5 -3.23759,-7.5 l 0,-2.50006 0,2.50006 c 0,4 -1.6188,7.5 -3.23761,7.5 l -14.02958,0 c -3.23759,0 -3.23759,7 -3.23759,7" style="color:#000000;fill:none;stroke:#39a2d7;stroke-width:2.07769012;stroke-linecap:butt;stroke-linejoin:miter;stroke-miterlimit:4;stroke-dasharray:none;stroke-dashoffset:0;enable-background:accumulate" id="path6014-7" sodipodi:nodetypes="cssscsssc"/>
</svg>