<?xml version="1.0" encoding="UTF-8" standalone="no"?>
<svg xmlns:rdf="http://www.w3.org/1999/02/22-rdf-syntax-ns#" xmlns="http://www.w3.org/2000/svg" height="89.664pt" width="249.07pt" version="1.1" xmlns:cc="http://creativecommons.org/ns#" xmlns:xlink="http://www.w3.org/1999/xlink" viewBox="0 0 249.066 89.664" xmlns:dc="http://purl.org/dc/elements/1.1/">
 <desc>https://commons.wikimedia.org/wiki/File:Qcircuit_measure-arrow.svg</desc>
 <defs>
  <symbol id="glyph0-1" overflow="visible">
   <path d="m-18.031 19.828l0.297-0.047 0.296-0.156c7.282-5.078 13.454-11.562 18.235-19.031l0.15612-0.29712 0.04688-0.29688c-0.04688-0.59375-0.40625-0.95312-1-1l-0.29688 0.04688-0.29687 0.15624-0.20313 0.20313c-4.6875 7.3126-10.703 13.688-17.828 18.625l-0.203 0.203-0.156 0.297-0.047 0.297c0.047 0.594 0.406 0.953 1 1z"/>
  </symbol>
  <symbol id="glyph1-1" overflow="visible">
   <path d="m0-1l-0.29688 0.04688-0.29687 0.15624-0.20313 0.20313-0.15624 0.29687c-2.6407 7.0781-4.3281 14.594-4.3281 23.703 0 1.453-0.25 3.141 1.0468 3.344 0.5938-0.047 0.9532-0.406 1-1-0.0468-0.75-0.0468-1.594-0.0468-2.344 0-8.906 1.6406-16.234 4.2343-23.109l0.0469-0.297c-0.04688-0.59375-0.40625-0.95312-1-1z"/>
  </symbol>
 </defs>
 <path stroke-linejoin="round" d="m89.664 66.254c19.076-19.078 49.976-19.238 69.256-0.481" stroke="#000" stroke-linecap="round" stroke-miterlimit="10" stroke-width="1.99" fill="none"/>
 <path stroke-linejoin="round" d="m124.53 69.738 24.91-49.812" stroke="#000" stroke-linecap="round" stroke-miterlimit="10" stroke-width="1.99" fill="none"/>
 <g>
  <use xlink:href="#glyph0-1" height="89.664001" width="249.06599" y="19.927" x="149.438"/>
 </g>
 <g>
  <use xlink:href="#glyph1-1" height="89.664001" width="249.06599" y="19.927" x="149.438"/>
 </g>
 <g stroke-linejoin="round" stroke="#000" stroke-linecap="round" stroke-miterlimit="10" stroke-width="1.99" fill="none">
  <path d="m169.36 9.9609h-89.66"/>
  <path d="m79.703 9.9609v69.742"/>
  <path d="m79.703 79.703h89.66"/>
  <path d="m169.36 79.703v-69.742"/>
  <path d="m79.703 44.832h-69.738"/>
  <path d="m239.1 49.812h-69.738"/>
  <path d="m239.1 39.852h-69.738"/>
 </g>
</svg>