<?xml version="1.0" encoding="UTF-8" standalone="no"?>
<!-- Created with Inkscape (http://www.inkscape.org/) -->

<svg
   width="120"
   height="50"
   id="svg2"
   sodipodi:version="0.32"
   inkscape:version="1.1.2 (0a00cf5339, 2022-02-04, custom)"
   version="1.0"
   sodipodi:docname="porteXNOR_ANSI.svg"
   inkscape:output_extension="org.inkscape.output.svg.inkscape"
   xmlns:inkscape="http://www.inkscape.org/namespaces/inkscape"
   xmlns:sodipodi="http://sodipodi.sourceforge.net/DTD/sodipodi-0.dtd"
   xmlns="http://www.w3.org/2000/svg"
   xmlns:svg="http://www.w3.org/2000/svg"
   xmlns:rdf="http://www.w3.org/1999/02/22-rdf-syntax-ns#"
   xmlns:cc="http://creativecommons.org/ns#"
   xmlns:dc="http://purl.org/dc/elements/1.1/">
  <defs
     id="defs4">
    <inkscape:perspective
       sodipodi:type="inkscape:persp3d"
       inkscape:vp_x="0 : 15 : 1"
       inkscape:vp_y="0 : 1000 : 0"
       inkscape:vp_z="50 : 15 : 1"
       inkscape:persp3d-origin="25 : 10 : 1"
       id="perspective2714" />
    <inkscape:perspective
       sodipodi:type="inkscape:persp3d"
       inkscape:vp_x="0 : 0.5 : 1"
       inkscape:vp_y="0 : 1000 : 0"
       inkscape:vp_z="1 : 0.5 : 1"
       inkscape:persp3d-origin="0.5 : 0.33333333 : 1"
       id="perspective2806" />
    <inkscape:perspective
       id="perspective2819"
       inkscape:persp3d-origin="372.04724 : 350.78739 : 1"
       inkscape:vp_z="744.09448 : 526.18109 : 1"
       inkscape:vp_y="0 : 1000 : 0"
       inkscape:vp_x="0 : 526.18109 : 1"
       sodipodi:type="inkscape:persp3d" />
    <inkscape:perspective
       id="perspective2777"
       inkscape:persp3d-origin="75 : 40 : 1"
       inkscape:vp_z="150 : 60 : 1"
       inkscape:vp_y="0 : 1000 : 0"
       inkscape:vp_x="0 : 60 : 1"
       sodipodi:type="inkscape:persp3d" />
    <inkscape:perspective
       id="perspective3275"
       inkscape:persp3d-origin="50 : 33.333333 : 1"
       inkscape:vp_z="100 : 50 : 1"
       inkscape:vp_y="0 : 1000 : 0"
       inkscape:vp_x="0 : 50 : 1"
       sodipodi:type="inkscape:persp3d" />
    <inkscape:perspective
       id="perspective5533"
       inkscape:persp3d-origin="32 : 21.333333 : 1"
       inkscape:vp_z="64 : 32 : 1"
       inkscape:vp_y="0 : 1000 : 0"
       inkscape:vp_x="0 : 32 : 1"
       sodipodi:type="inkscape:persp3d" />
    <inkscape:perspective
       id="perspective2557"
       inkscape:persp3d-origin="25 : 16.666667 : 1"
       inkscape:vp_z="50 : 25 : 1"
       inkscape:vp_y="0 : 1000 : 0"
       inkscape:vp_x="0 : 25 : 1"
       sodipodi:type="inkscape:persp3d" />
  </defs>
  <sodipodi:namedview
     id="base"
     pagecolor="#ffffff"
     bordercolor="#666666"
     borderopacity="1.0"
     inkscape:pageopacity="0.0"
     inkscape:pageshadow="2"
     inkscape:zoom="5.6568542"
     inkscape:cx="52.149126"
     inkscape:cy="8.4852814"
     inkscape:document-units="px"
     inkscape:current-layer="g2560"
     showgrid="true"
     inkscape:grid-bbox="true"
     inkscape:grid-points="true"
     gridtolerance="10000"
     inkscape:window-width="3769"
     inkscape:window-height="2132"
     inkscape:window-x="71"
     inkscape:window-y="0"
     inkscape:snap-bbox="true"
     inkscape:pagecheckerboard="0"
     inkscape:window-maximized="1" />
  <metadata
     id="metadata7">
    <rdf:RDF>
      <cc:Work
         rdf:about="">
        <dc:format>image/svg+xml</dc:format>
        <dc:type
           rdf:resource="http://purl.org/dc/dcmitype/StillImage" />
      </cc:Work>
    </rdf:RDF>
  </metadata>
  <g
     inkscape:label="Layer 1"
     inkscape:groupmode="layer"
     id="layer1">
    <path
       style="fill:none;stroke:#000000;stroke-width:2.00000024;stroke-linecap:butt;stroke-linejoin:miter;stroke-opacity:1"
       d="M 88.364582,25 C 101.69792,25 105.03125,25 105.03125,25"
       id="path3059"
       sodipodi:nodetypes="cc" />
    <path
       style="fill:none;stroke:#000000;stroke-width:1.99999988;stroke-linecap:butt;stroke-linejoin:miter;stroke-opacity:1"
       d="M 40.416967,15 L 15.03125,15"
       id="path3061" />
    <path
       style="fill:none;stroke:#000000;stroke-width:1.99999976;stroke-linecap:butt;stroke-linejoin:miter;stroke-opacity:1"
       d="M 41.393341,35 L 15.03125,35"
       id="path3944" />
    <g
       id="g2560"
       inkscape:label="Layer 1"
       transform="translate(26.5,-39.5)">
      <path
         id="path3516"
         style="fill:#000000;fill-opacity:1;fill-rule:evenodd;stroke:none;stroke-width:3;stroke-linecap:butt;stroke-linejoin:miter;stroke-opacity:1"
         d="M 7.78125,81.500005 C 6.183876,84.144405 5.53125,84.500005 5.53125,84.500005 L 1.875,84.500005 L 3.875,82.062505 C 3.875,82.062505 9.53125,75.062451 9.53125,64.5 C 9.53125,53.937549 3.875,46.9375 3.875,46.9375 L 1.875,44.5 L 5.53125,44.5 C 6.3125,45.4375 6.953125,46.15625 7.75,47.5 C 9.622719,50.599815 12.53125,56.526646 12.53125,64.5 C 12.53125,72.45065 9.634553,78.379425 7.78125,81.500005 z"
         sodipodi:nodetypes="ccccsccccsc" />
      <path
         style="fill:#000000;fill-opacity:1;fill-rule:evenodd;stroke:none;stroke-width:3;stroke-linecap:butt;stroke-linejoin:miter;stroke-opacity:1"
         d="M 7.625,44.5 L 9.625,46.9375 C 9.625,46.9375 15.28125,53.937549 15.28125,64.5 C 15.28125,75.062451 9.625,82.0625 9.625,82.0625 L 7.625,84.5 L 10.78125,84.5 L 24.78125,84.5 C 27.189326,84.500001 32.470949,84.524514 38.40625,82.09375 C 43.855464,79.86206 49.866002,75.538482 54.800176,67.468855 L 53.78125,64.5 L 54.595593,61.203487 C 44.28072,44.695702 29.313122,44.5 24.78125,44.5 L 10.78125,44.5 L 7.625,44.5 z M 13.5,47.5 L 24.78125,47.5 C 29.465423,47.5 43.0681,47.369793 52.75,64.5 C 47.983214,72.929075 42.228719,77.18391 37.03125,79.3125 C 31.670589,81.507924 27.189325,81.500001 24.78125,81.5 L 13.53125,81.5 C 15.404838,78.391566 18.28125,72.45065 18.28125,64.5 C 18.28125,56.526646 15.372719,50.599815 13.5,47.5 z"
         id="path4973"
         sodipodi:nodetypes="ccsccccscccccccccsccsc" />
      <text
         xml:space="preserve"
         style="font-style:normal;font-variant:normal;font-weight:normal;font-stretch:normal;line-height:0%;font-family:'DejaVu Sans';-inkscape-font-specification:'DejaVu Sans';text-align:end;writing-mode:lr-tb;text-anchor:end;fill:#000000;fill-opacity:1;stroke:none;stroke-width:1px;stroke-linecap:butt;stroke-linejoin:miter;stroke-opacity:1"
         x="-15.039063"
         y="59.5"
         id="text6866"><tspan
           sodipodi:role="line"
           id="tspan6868"
           x="-15.039063"
           y="59.5"
           style="font-size:14px;line-height:1">A</tspan></text>
      <text
         xml:space="preserve"
         style="font-style:normal;font-variant:normal;font-weight:normal;font-stretch:normal;line-height:0%;font-family:'DejaVu Sans';-inkscape-font-specification:'DejaVu Sans';text-align:end;writing-mode:lr-tb;text-anchor:end;fill:#000000;fill-opacity:1;stroke:none;stroke-width:1px;stroke-linecap:butt;stroke-linejoin:miter;stroke-opacity:1"
         x="-15.011719"
         y="79.5"
         id="text6870"><tspan
           sodipodi:role="line"
           id="tspan6872"
           x="-15.011719"
           y="79.5"
           style="font-size:14px;line-height:1">B</tspan></text>
      <text
         xml:space="preserve"
         style="font-style:normal;font-variant:normal;font-weight:normal;font-stretch:normal;line-height:0%;font-family:'DejaVu Sans';-inkscape-font-specification:'DejaVu Sans';text-align:end;writing-mode:lr-tb;text-anchor:end;fill:#000000;fill-opacity:1;stroke:none;stroke-width:1px;stroke-linecap:butt;stroke-linejoin:miter;stroke-opacity:1"
         x="91.910156"
         y="69.5"
         id="text6878"><tspan
           sodipodi:role="line"
           id="tspan6880"
           x="91.910156"
           y="69.5"
           style="font-size:14px;line-height:1">S</tspan></text>
    </g>
    <path
       sodipodi:type="arc"
       style="fill:none;fill-opacity:1;stroke:#000000;stroke-width:2;stroke-linejoin:miter;marker:none;stroke-opacity:1;visibility:visible;display:inline;overflow:visible;enable-background:accumulate"
       id="path3551"
       sodipodi:cx="75"
       sodipodi:cy="25"
       sodipodi:rx="4"
       sodipodi:ry="4"
       d="M 79,25 A 4,4 0 1 1 71,25 A 4,4 0 1 1 79,25 z"
       transform="translate(9.03125,0)" />
  </g>
</svg>
