<?xml version="1.0" encoding="UTF-8" standalone="no"?>
<!-- Created with Inkscape (http://www.inkscape.org/) -->

<svg
   width="380"
   height="100"
   id="svg6359"
   sodipodi:version="0.32"
   inkscape:version="1.1.2 (0a00cf5339, 2022-02-04, custom)"
   version="1.0"
   sodipodi:docname="porteXNOR_from_NAND.svg"
   inkscape:output_extension="org.inkscape.output.svg.inkscape"
   xmlns:inkscape="http://www.inkscape.org/namespaces/inkscape"
   xmlns:sodipodi="http://sodipodi.sourceforge.net/DTD/sodipodi-0.dtd"
   xmlns="http://www.w3.org/2000/svg"
   xmlns:svg="http://www.w3.org/2000/svg"
   xmlns:rdf="http://www.w3.org/1999/02/22-rdf-syntax-ns#"
   xmlns:cc="http://creativecommons.org/ns#"
   xmlns:dc="http://purl.org/dc/elements/1.1/">
  <defs
     id="defs6361">
    <inkscape:perspective
       sodipodi:type="inkscape:persp3d"
       inkscape:vp_x="0 : 526.18109 : 1"
       inkscape:vp_y="0 : 1000 : 0"
       inkscape:vp_z="744.09448 : 526.18109 : 1"
       inkscape:persp3d-origin="372.04724 : 350.78739 : 1"
       id="perspective6367" />
    <inkscape:perspective
       sodipodi:type="inkscape:persp3d"
       inkscape:vp_x="0 : 32 : 1"
       inkscape:vp_y="0 : 1000 : 0"
       inkscape:vp_z="64 : 32 : 1"
       inkscape:persp3d-origin="32 : 21.333333 : 1"
       id="perspective5533" />
    <inkscape:perspective
       sodipodi:type="inkscape:persp3d"
       inkscape:vp_x="0 : 50 : 1"
       inkscape:vp_y="0 : 1000 : 0"
       inkscape:vp_z="100 : 50 : 1"
       inkscape:persp3d-origin="50 : 33.333333 : 1"
       id="perspective3275" />
    <inkscape:perspective
       sodipodi:type="inkscape:persp3d"
       inkscape:vp_x="0 : 60 : 1"
       inkscape:vp_y="0 : 1000 : 0"
       inkscape:vp_z="150 : 60 : 1"
       inkscape:persp3d-origin="75 : 40 : 1"
       id="perspective2777" />
    <inkscape:perspective
       sodipodi:type="inkscape:persp3d"
       inkscape:vp_x="0 : 526.18109 : 1"
       inkscape:vp_y="0 : 1000 : 0"
       inkscape:vp_z="744.09448 : 526.18109 : 1"
       inkscape:persp3d-origin="372.04724 : 350.78739 : 1"
       id="perspective2819" />
    <inkscape:perspective
       id="perspective2806"
       inkscape:persp3d-origin="0.5 : 0.33333333 : 1"
       inkscape:vp_z="1 : 0.5 : 1"
       inkscape:vp_y="0 : 1000 : 0"
       inkscape:vp_x="0 : 0.5 : 1"
       sodipodi:type="inkscape:persp3d" />
    <inkscape:perspective
       id="perspective2714"
       inkscape:persp3d-origin="25 : 10 : 1"
       inkscape:vp_z="50 : 15 : 1"
       inkscape:vp_y="0 : 1000 : 0"
       inkscape:vp_x="0 : 15 : 1"
       sodipodi:type="inkscape:persp3d" />
    <inkscape:perspective
       sodipodi:type="inkscape:persp3d"
       inkscape:vp_x="0 : 32 : 1"
       inkscape:vp_y="0 : 1000 : 0"
       inkscape:vp_z="64 : 32 : 1"
       inkscape:persp3d-origin="32 : 21.333333 : 1"
       id="perspective6738" />
    <inkscape:perspective
       sodipodi:type="inkscape:persp3d"
       inkscape:vp_x="0 : 50 : 1"
       inkscape:vp_y="0 : 1000 : 0"
       inkscape:vp_z="100 : 50 : 1"
       inkscape:persp3d-origin="50 : 33.333333 : 1"
       id="perspective6736" />
    <inkscape:perspective
       sodipodi:type="inkscape:persp3d"
       inkscape:vp_x="0 : 60 : 1"
       inkscape:vp_y="0 : 1000 : 0"
       inkscape:vp_z="150 : 60 : 1"
       inkscape:persp3d-origin="75 : 40 : 1"
       id="perspective6734" />
    <inkscape:perspective
       sodipodi:type="inkscape:persp3d"
       inkscape:vp_x="0 : 526.18109 : 1"
       inkscape:vp_y="0 : 1000 : 0"
       inkscape:vp_z="744.09448 : 526.18109 : 1"
       inkscape:persp3d-origin="372.04724 : 350.78739 : 1"
       id="perspective6732" />
    <inkscape:perspective
       id="perspective6730"
       inkscape:persp3d-origin="0.5 : 0.33333333 : 1"
       inkscape:vp_z="1 : 0.5 : 1"
       inkscape:vp_y="0 : 1000 : 0"
       inkscape:vp_x="0 : 0.5 : 1"
       sodipodi:type="inkscape:persp3d" />
    <inkscape:perspective
       id="perspective6728"
       inkscape:persp3d-origin="25 : 10 : 1"
       inkscape:vp_z="50 : 15 : 1"
       inkscape:vp_y="0 : 1000 : 0"
       inkscape:vp_x="0 : 15 : 1"
       sodipodi:type="inkscape:persp3d" />
    <inkscape:perspective
       sodipodi:type="inkscape:persp3d"
       inkscape:vp_x="0 : 25 : 1"
       inkscape:vp_y="0 : 1000 : 0"
       inkscape:vp_z="50 : 25 : 1"
       inkscape:persp3d-origin="25 : 16.666667 : 1"
       id="perspective2557" />
    <inkscape:perspective
       sodipodi:type="inkscape:persp3d"
       inkscape:vp_x="0 : 32 : 1"
       inkscape:vp_y="0 : 1000 : 0"
       inkscape:vp_z="64 : 32 : 1"
       inkscape:persp3d-origin="32 : 21.333333 : 1"
       id="perspective6846" />
    <inkscape:perspective
       sodipodi:type="inkscape:persp3d"
       inkscape:vp_x="0 : 50 : 1"
       inkscape:vp_y="0 : 1000 : 0"
       inkscape:vp_z="100 : 50 : 1"
       inkscape:persp3d-origin="50 : 33.333333 : 1"
       id="perspective6844" />
    <inkscape:perspective
       sodipodi:type="inkscape:persp3d"
       inkscape:vp_x="0 : 60 : 1"
       inkscape:vp_y="0 : 1000 : 0"
       inkscape:vp_z="150 : 60 : 1"
       inkscape:persp3d-origin="75 : 40 : 1"
       id="perspective6842" />
    <inkscape:perspective
       sodipodi:type="inkscape:persp3d"
       inkscape:vp_x="0 : 526.18109 : 1"
       inkscape:vp_y="0 : 1000 : 0"
       inkscape:vp_z="744.09448 : 526.18109 : 1"
       inkscape:persp3d-origin="372.04724 : 350.78739 : 1"
       id="perspective6840" />
    <inkscape:perspective
       id="perspective6838"
       inkscape:persp3d-origin="0.5 : 0.33333333 : 1"
       inkscape:vp_z="1 : 0.5 : 1"
       inkscape:vp_y="0 : 1000 : 0"
       inkscape:vp_x="0 : 0.5 : 1"
       sodipodi:type="inkscape:persp3d" />
    <inkscape:perspective
       id="perspective6836"
       inkscape:persp3d-origin="25 : 10 : 1"
       inkscape:vp_z="50 : 15 : 1"
       inkscape:vp_y="0 : 1000 : 0"
       inkscape:vp_x="0 : 15 : 1"
       sodipodi:type="inkscape:persp3d" />
    <inkscape:perspective
       sodipodi:type="inkscape:persp3d"
       inkscape:vp_x="0 : 32 : 1"
       inkscape:vp_y="0 : 1000 : 0"
       inkscape:vp_z="64 : 32 : 1"
       inkscape:persp3d-origin="32 : 21.333333 : 1"
       id="perspective9092" />
    <inkscape:perspective
       sodipodi:type="inkscape:persp3d"
       inkscape:vp_x="0 : 50 : 1"
       inkscape:vp_y="0 : 1000 : 0"
       inkscape:vp_z="100 : 50 : 1"
       inkscape:persp3d-origin="50 : 33.333333 : 1"
       id="perspective9090" />
    <inkscape:perspective
       sodipodi:type="inkscape:persp3d"
       inkscape:vp_x="0 : 60 : 1"
       inkscape:vp_y="0 : 1000 : 0"
       inkscape:vp_z="150 : 60 : 1"
       inkscape:persp3d-origin="75 : 40 : 1"
       id="perspective9088" />
    <inkscape:perspective
       sodipodi:type="inkscape:persp3d"
       inkscape:vp_x="0 : 526.18109 : 1"
       inkscape:vp_y="0 : 1000 : 0"
       inkscape:vp_z="744.09448 : 526.18109 : 1"
       inkscape:persp3d-origin="372.04724 : 350.78739 : 1"
       id="perspective9086" />
    <inkscape:perspective
       id="perspective9084"
       inkscape:persp3d-origin="0.5 : 0.33333333 : 1"
       inkscape:vp_z="1 : 0.5 : 1"
       inkscape:vp_y="0 : 1000 : 0"
       inkscape:vp_x="0 : 0.5 : 1"
       sodipodi:type="inkscape:persp3d" />
    <inkscape:perspective
       id="perspective9082"
       inkscape:persp3d-origin="25 : 10 : 1"
       inkscape:vp_z="50 : 15 : 1"
       inkscape:vp_y="0 : 1000 : 0"
       inkscape:vp_x="0 : 15 : 1"
       sodipodi:type="inkscape:persp3d" />
  </defs>
  <sodipodi:namedview
     id="base"
     pagecolor="#ffffff"
     bordercolor="#666666"
     borderopacity="1.0"
     gridtolerance="10000"
     guidetolerance="10"
     objecttolerance="10"
     inkscape:pageopacity="0.0"
     inkscape:pageshadow="2"
     inkscape:zoom="8"
     inkscape:cx="336.25"
     inkscape:cy="36.5"
     inkscape:document-units="px"
     inkscape:current-layer="layer1"
     showgrid="true"
     inkscape:window-width="3769"
     inkscape:window-height="2132"
     inkscape:window-x="71"
     inkscape:window-y="0"
     inkscape:pagecheckerboard="0"
     inkscape:window-maximized="1">
    <inkscape:grid
       type="xygrid"
       id="grid6453"
       visible="true"
       enabled="true" />
  </sodipodi:namedview>
  <metadata
     id="metadata6364">
    <rdf:RDF>
      <cc:Work
         rdf:about="">
        <dc:format>image/svg+xml</dc:format>
        <dc:type
           rdf:resource="http://purl.org/dc/dcmitype/StillImage" />
      </cc:Work>
    </rdf:RDF>
  </metadata>
  <g
     inkscape:label="Layer 1"
     inkscape:groupmode="layer"
     id="layer1">
    <path
       sodipodi:type="arc"
       style="fill:none;fill-opacity:1;stroke:#000000;stroke-width:2;stroke-linejoin:miter;marker:none;stroke-opacity:1;visibility:visible;display:inline;overflow:visible;enable-background:accumulate"
       id="path4008"
       sodipodi:cx="75"
       sodipodi:cy="25"
       sodipodi:rx="4"
       sodipodi:ry="4"
       d="M 79,25 A 4,4 0 1 1 71,25 A 4,4 0 1 1 79,25 z"
       transform="translate(108.0625,3.125e-2)" />
    <path
       style="fill:none;stroke:#000000;stroke-width:1.99999976;stroke-linecap:butt;stroke-linejoin:miter;stroke-opacity:1"
       d="M 269.39537,50 L 290.33489,50"
       id="path6851"
       sodipodi:nodetypes="cc" />
    <path
       sodipodi:type="arc"
       style="fill:none;fill-opacity:1;stroke:#000000;stroke-width:2;stroke-linejoin:miter;marker:none;stroke-opacity:1;visibility:visible;display:inline;overflow:visible;enable-background:accumulate"
       id="path2671"
       sodipodi:cx="76"
       sodipodi:cy="25"
       sodipodi:rx="4"
       sodipodi:ry="4"
       d="M 80,25 A 4,4 0 1 1 72,25 A 4,4 0 1 1 80,25 z"
       transform="translate(189,25.000004)" />
    <text
       xml:space="preserve"
       style="font-style:normal;font-variant:normal;font-weight:normal;font-stretch:normal;line-height:0%;font-family:'DejaVu Sans';-inkscape-font-specification:'DejaVu Sans';text-align:end;writing-mode:lr-tb;text-anchor:end;fill:#000000;fill-opacity:1;stroke:none;stroke-width:1px;stroke-linecap:butt;stroke-linejoin:miter;stroke-opacity:1"
       x="12.752296"
       y="20.131756"
       id="text6866"><tspan
         sodipodi:role="line"
         id="tspan6868"
         x="12.752296"
         y="20.131756"
         style="font-size:14px;line-height:1">A</tspan></text>
    <text
       xml:space="preserve"
       style="font-style:normal;font-variant:normal;font-weight:normal;font-stretch:normal;line-height:0%;font-family:'DejaVu Sans';-inkscape-font-specification:'DejaVu Sans';text-align:end;writing-mode:lr-tb;text-anchor:end;fill:#000000;fill-opacity:1;stroke:none;stroke-width:1px;stroke-linecap:butt;stroke-linejoin:miter;stroke-opacity:1"
       x="12.71714"
       y="90"
       id="text6870"><tspan
         sodipodi:role="line"
         id="tspan6872"
         x="12.71714"
         y="90"
         style="font-size:14px;line-height:1">B</tspan></text>
    <text
       xml:space="preserve"
       style="font-style:italic;font-variant:normal;font-weight:normal;font-stretch:normal;line-height:0%;font-family:'DejaVu Serif';-inkscape-font-specification:'DejaVu Serif Italic';text-align:end;writing-mode:lr-tb;text-anchor:end;fill:#000000;fill-opacity:1;stroke:none;stroke-width:1px;stroke-linecap:butt;stroke-linejoin:miter;stroke-opacity:1"
       x="110.8125"
       y="51.53125"
       id="text6874"><tspan
         sodipodi:role="line"
         id="tspan6876"
         x="116.53418"
         y="51.53125"
         style="font-size:18px;line-height:1"> </tspan></text>
    <text
       xml:space="preserve"
       style="font-style:normal;font-variant:normal;font-weight:normal;font-stretch:normal;line-height:0%;font-family:'DejaVu Sans';-inkscape-font-specification:'DejaVu Sans';text-align:end;writing-mode:lr-tb;text-anchor:end;fill:#000000;fill-opacity:1;stroke:none;stroke-width:1px;stroke-linecap:butt;stroke-linejoin:miter;stroke-opacity:1"
       x="379.3783"
       y="55.000004"
       id="text6878"><tspan
         sodipodi:role="line"
         id="tspan6880"
         x="379.3783"
         y="55.000004"
         style="font-size:14px;line-height:1">S</tspan></text>
    <path
       sodipodi:type="arc"
       style="fill:#000000;fill-opacity:1;stroke:none;stroke-width:2;stroke-linejoin:miter;marker:none;stroke-miterlimit:4;stroke-dasharray:none;stroke-opacity:1;visibility:visible;display:inline;overflow:visible;enable-background:accumulate"
       id="path7571"
       sodipodi:cx="105"
       sodipodi:cy="25"
       sodipodi:rx="2"
       sodipodi:ry="2"
       d="M 107,25 A 2,2 0 1 1 103,25 A 2,2 0 1 1 107,25 z"
       transform="matrix(1.25,0,0,1.25,-11.25,18.75)" />
    <path
       sodipodi:type="arc"
       style="fill:none;fill-opacity:1;stroke:#000000;stroke-width:2;stroke-linejoin:miter;marker:none;stroke-opacity:1;visibility:visible;display:inline;overflow:visible;enable-background:accumulate"
       id="path8976"
       sodipodi:cx="75"
       sodipodi:cy="25"
       sodipodi:rx="4"
       sodipodi:ry="4"
       d="M 79,25 A 4,4 0 1 1 71,25 A 4,4 0 1 1 79,25 z"
       transform="translate(108.1875,49.96875)" />
    <path
       style="fill:none;fill-opacity:1;stroke:#000000;stroke-width:2;stroke-linejoin:miter;marker:none;stroke-miterlimit:4;stroke-dasharray:none;stroke-opacity:1;visibility:visible;display:inline;overflow:visible;enable-background:accumulate"
       d="M 187.1875,24.968749 L 200,25 L 200,40.03831 L 222,40"
       id="path8978"
       sodipodi:nodetypes="cccc" />
    <path
       style="fill:none;fill-opacity:1;stroke:#000000;stroke-width:1.99999988;stroke-linejoin:miter;marker:none;stroke-miterlimit:4;stroke-dasharray:none;stroke-opacity:1;visibility:visible;display:inline;overflow:visible;enable-background:accumulate"
       d="M 188,75 L 200,75 L 200,60 L 222,60"
       id="path8980"
       sodipodi:nodetypes="cccc" />
    <path
       style="fill:none;fill-opacity:1;stroke:#000000;stroke-width:1.99999964;stroke-linejoin:miter;marker:none;stroke-miterlimit:4;stroke-dasharray:none;stroke-opacity:1;visibility:visible;display:inline;overflow:visible;enable-background:accumulate"
       d="M 15.076771,15 L 140.25787,15.03125"
       id="path8984"
       sodipodi:nodetypes="cc" />
    <path
       sodipodi:type="arc"
       style="fill:#000000;fill-opacity:1;stroke:none;stroke-width:2;stroke-linejoin:miter;marker:none;stroke-miterlimit:4;stroke-dasharray:none;stroke-opacity:1;visibility:visible;display:inline;overflow:visible;enable-background:accumulate"
       id="path8986"
       sodipodi:cx="105"
       sodipodi:cy="25"
       sodipodi:rx="2"
       sodipodi:ry="2"
       d="M 107,25 A 2,2 0 1 1 103,25 A 2,2 0 1 1 107,25 z"
       transform="matrix(1.25,0,0,1.25,-99.25,53.75)" />
    <path
       style="fill:none;fill-opacity:1;stroke:#000000;stroke-width:1.99999976;stroke-linejoin:miter;marker:none;stroke-miterlimit:4;stroke-dasharray:none;stroke-opacity:1;visibility:visible;display:inline;overflow:visible;enable-background:accumulate"
       d="M 15.038458,85 L 140.03846,85"
       id="path8990"
       sodipodi:nodetypes="cc" />
    <path
       sodipodi:nodetypes="ccccccsccccsssssccc"
       id="path2884"
       d="M 139,5 L 139,6.4285714 L 139,43.571429 L 139,45 L 140.42857,45 L 159.47619,45 C 170.7441,45 179.47619,35.999955 179.47619,25 C 179.47619,14.000045 170.7441,5.0000002 159.47619,5 C 159.47619,5 159.47619,5 140.42857,5 L 139,5 z M 141.85714,7.8571429 C 149.83426,7.8571429 154.91837,7.8571429 157.09524,7.8571429 C 158.28571,7.8571429 158.88095,7.8571429 159.17857,7.8571429 C 159.32738,7.8571429 159.40923,7.8571429 159.44643,7.8571429 C 159.46503,7.8571429 159.47154,7.8571429 159.47619,7.8571429 C 169.23685,7.857143 176.14286,15.497098 176.14286,25 C 176.14286,34.502902 168.76066,42.142857 159,42.142857 L 141.85714,42.142857 L 141.85714,7.8571429 z"
       style="font-size:medium;font-style:normal;font-variant:normal;font-weight:normal;font-stretch:normal;text-indent:0;text-align:start;text-decoration:none;line-height:normal;letter-spacing:normal;word-spacing:normal;text-transform:none;direction:ltr;block-progression:tb;writing-mode:lr-tb;text-anchor:start;fill:#000000;fill-opacity:1;stroke:none;stroke-width:3;marker:none;visibility:visible;display:inline;overflow:visible;enable-background:accumulate;font-family:Bitstream Vera Sans;-inkscape-font-specification:Bitstream Vera Sans" />
    <path
       sodipodi:nodetypes="ccccccsccccsssssccc"
       id="path9103"
       d="M 139.14286,55.142857 L 139.14286,56.571428 L 139.14286,93.714286 L 139.14286,95.142857 L 140.57143,95.142857 L 159.61905,95.142857 C 170.88696,95.142857 179.61905,86.142812 179.61905,75.142857 C 179.61905,64.142902 170.88696,55.142857 159.61905,55.142857 C 159.61905,55.142857 159.61905,55.142857 140.57143,55.142857 L 139.14286,55.142857 z M 142,58 C 149.97712,58 155.06123,58 157.2381,58 C 158.42857,58 159.02381,58 159.32143,58 C 159.47024,58 159.55208,58 159.58929,58 C 159.60789,58 159.6144,58 159.61905,58 C 169.37971,58 176.28571,65.639955 176.28571,75.142857 C 176.28571,84.645759 168.90352,92.285714 159.14286,92.285714 L 142,92.285714 L 142,58 z"
       style="font-size:medium;font-style:normal;font-variant:normal;font-weight:normal;font-stretch:normal;text-indent:0;text-align:start;text-decoration:none;line-height:normal;letter-spacing:normal;word-spacing:normal;text-transform:none;direction:ltr;block-progression:tb;writing-mode:lr-tb;text-anchor:start;fill:#000000;fill-opacity:1;stroke:none;stroke-width:3;marker:none;visibility:visible;display:inline;overflow:visible;enable-background:accumulate;font-family:Bitstream Vera Sans;-inkscape-font-specification:Bitstream Vera Sans" />
    <path
       sodipodi:nodetypes="ccccccsccccsssssccc"
       id="path9105"
       d="M 221,30 L 221,31.428571 L 221,68.571429 L 221,70 L 222.42857,70 L 241.47619,70 C 252.74409,70 261.47619,60.999955 261.47619,50 C 261.47619,39.000045 252.74409,30 241.47619,30 C 241.47619,30 241.47619,30 222.42857,30 L 221,30 z M 223.85714,32.857143 C 231.83426,32.857143 236.91836,32.857143 239.09523,32.857143 C 240.28571,32.857143 240.88095,32.857143 241.17857,32.857143 C 241.32738,32.857143 241.40922,32.857143 241.44642,32.857143 C 241.46502,32.857143 241.47154,32.857143 241.47619,32.857143 C 251.23685,32.857143 258.14285,40.497098 258.14285,50 C 258.14285,59.502902 250.76066,67.142857 241,67.142857 L 223.85714,67.142857 L 223.85714,32.857143 z"
       style="font-size:medium;font-style:normal;font-variant:normal;font-weight:normal;font-stretch:normal;text-indent:0;text-align:start;text-decoration:none;line-height:normal;letter-spacing:normal;word-spacing:normal;text-transform:none;direction:ltr;block-progression:tb;writing-mode:lr-tb;text-anchor:start;fill:#000000;fill-opacity:1;stroke:none;stroke-width:3;marker:none;visibility:visible;display:inline;overflow:visible;enable-background:accumulate;font-family:Bitstream Vera Sans;-inkscape-font-specification:Bitstream Vera Sans" />
    <path
       transform="translate(24,25.000004)"
       d="M 80,25 A 4,4 0 1 1 72,25 A 4,4 0 1 1 80,25 z"
       sodipodi:ry="4"
       sodipodi:rx="4"
       sodipodi:cy="25"
       sodipodi:cx="76"
       id="path2632"
       style="fill:none;fill-opacity:1;stroke:#000000;stroke-width:2;stroke-linejoin:miter;marker:none;stroke-opacity:1;visibility:visible;display:inline;overflow:visible;enable-background:accumulate"
       sodipodi:type="arc" />
    <path
       style="font-size:medium;font-style:normal;font-variant:normal;font-weight:normal;font-stretch:normal;text-indent:0;text-align:start;text-decoration:none;line-height:normal;letter-spacing:normal;word-spacing:normal;text-transform:none;direction:ltr;block-progression:tb;writing-mode:lr-tb;text-anchor:start;fill:#000000;fill-opacity:1;stroke:none;stroke-width:3;marker:none;visibility:visible;display:inline;overflow:visible;enable-background:accumulate;font-family:Bitstream Vera Sans;-inkscape-font-specification:Bitstream Vera Sans"
       d="M 56,30 L 56,31.428571 L 56,68.571429 L 56,70 L 57.42857,70 L 76.47619,70 C 87.74409,70 96.47619,60.999955 96.47619,50 C 96.47619,39.000045 87.74409,30 76.47619,30 C 76.47619,30 76.47619,30 57.42857,30 L 56,30 z M 58.85714,32.857143 C 66.83426,32.857143 71.91836,32.857143 74.09523,32.857143 C 75.28571,32.857143 75.88095,32.857143 76.17857,32.857143 C 76.32738,32.857143 76.40922,32.857143 76.44642,32.857143 C 76.46502,32.857143 76.47154,32.857143 76.47619,32.857143 C 86.23685,32.857143 93.14285,40.497098 93.14285,50 C 93.14285,59.502902 85.76066,67.142857 76,67.142857 L 58.85714,67.142857 L 58.85714,32.857143 z"
       id="path2634"
       sodipodi:nodetypes="ccccccsccccsssssccc" />
    <path
       style="opacity:1;fill:none;fill-opacity:1;stroke:#000000;stroke-width:2;stroke-linecap:butt;stroke-linejoin:miter;marker:none;stroke-miterlimit:4;stroke-dasharray:none;stroke-dashoffset:0;stroke-opacity:1;visibility:visible;display:inline;overflow:visible;enable-background:accumulate"
       d="M 32,15 L 32,40 L 57,40"
       id="path2636"
       sodipodi:nodetypes="ccc" />
    <path
       style="opacity:1;fill:none;fill-opacity:1;stroke:#000000;stroke-width:2;stroke-linecap:butt;stroke-linejoin:miter;marker:none;stroke-miterlimit:4;stroke-dasharray:none;stroke-dashoffset:0;stroke-opacity:1;visibility:visible;display:inline;overflow:visible;enable-background:accumulate"
       d="M 57,60 L 32,60 L 32,85"
       id="path2638"
       sodipodi:nodetypes="ccc" />
    <path
       style="opacity:1;fill:none;fill-opacity:1;stroke:#000000;stroke-width:2;stroke-linecap:butt;stroke-linejoin:miter;marker:none;stroke-miterlimit:4;stroke-dasharray:none;stroke-dashoffset:0;stroke-opacity:1;visibility:visible;display:inline;overflow:visible;enable-background:accumulate"
       d="M 140,35 L 120,35 L 120,65 L 140,65"
       id="path2640" />
    <path
       style="opacity:1;fill:none;fill-opacity:1;stroke:#000000;stroke-width:2;stroke-linecap:butt;stroke-linejoin:miter;marker:none;stroke-miterlimit:4;stroke-dasharray:none;stroke-dashoffset:0;stroke-opacity:1;visibility:visible;display:inline;overflow:visible;enable-background:accumulate"
       d="M 118.8617,50 L 103.8617,50"
       id="path2642"
       sodipodi:nodetypes="cc" />
    <path
       transform="matrix(1.25,0,0,1.25,-99.25,-16.25)"
       d="M 107,25 A 2,2 0 1 1 103,25 A 2,2 0 1 1 107,25 z"
       sodipodi:ry="2"
       sodipodi:rx="2"
       sodipodi:cy="25"
       sodipodi:cx="105"
       id="path2644"
       style="fill:#000000;fill-opacity:1;stroke:none;stroke-width:2;stroke-linejoin:miter;marker:none;stroke-miterlimit:4;stroke-dasharray:none;stroke-opacity:1;visibility:visible;display:inline;overflow:visible;enable-background:accumulate"
       sodipodi:type="arc" />
    <path
       sodipodi:nodetypes="cc"
       id="path2443"
       d="M 350.14286,50 L 366.13048,50"
       style="fill:none;stroke:#000000;stroke-width:1.99999988;stroke-linecap:butt;stroke-linejoin:miter;stroke-opacity:1" />
    <path
       transform="translate(270.14286,25.000004)"
       d="M 80,25 A 4,4 0 1 1 72,25 A 4,4 0 1 1 80,25 z"
       sodipodi:ry="4"
       sodipodi:rx="4"
       sodipodi:cy="25"
       sodipodi:cx="76"
       id="path2445"
       style="fill:none;fill-opacity:1;stroke:#000000;stroke-width:2;stroke-linejoin:miter;marker:none;stroke-opacity:1;visibility:visible;display:inline;overflow:visible;enable-background:accumulate"
       sodipodi:type="arc" />
    <path
       style="font-size:medium;font-style:normal;font-variant:normal;font-weight:normal;font-stretch:normal;text-indent:0;text-align:start;text-decoration:none;line-height:normal;letter-spacing:normal;word-spacing:normal;text-transform:none;direction:ltr;block-progression:tb;writing-mode:lr-tb;text-anchor:start;fill:#000000;fill-opacity:1;stroke:none;stroke-width:3;marker:none;visibility:visible;display:inline;overflow:visible;enable-background:accumulate;font-family:Bitstream Vera Sans;-inkscape-font-specification:Bitstream Vera Sans"
       d="M 302.14286,30 L 302.14286,31.428571 L 302.14286,68.571429 L 302.14286,70 L 303.57143,70 L 322.61905,70 C 333.88695,70 342.61905,60.999955 342.61905,50 C 342.61905,39.000045 333.88695,30 322.61905,30 C 322.61905,30 322.61905,30 303.57143,30 L 302.14286,30 z M 305,32.857143 C 312.97712,32.857143 318.06122,32.857143 320.23809,32.857143 C 321.42857,32.857143 322.02381,32.857143 322.32143,32.857143 C 322.47024,32.857143 322.55208,32.857143 322.58928,32.857143 C 322.60788,32.857143 322.6144,32.857143 322.61905,32.857143 C 332.37971,32.857143 339.28571,40.497098 339.28571,50 C 339.28571,59.502902 331.90352,67.142857 322.14286,67.142857 L 305,67.142857 L 305,32.857143 z"
       id="path2447"
       sodipodi:nodetypes="ccccccsccccsssssccc" />
    <path
       style="opacity:1;fill:none;fill-opacity:1;stroke:#000000;stroke-width:2;stroke-linecap:butt;stroke-linejoin:miter;marker:none;stroke-miterlimit:4;stroke-dasharray:none;stroke-dashoffset:0;stroke-opacity:1;visibility:visible;display:inline;overflow:visible;enable-background:accumulate"
       d="M 305,40 L 290,40 L 290,60 L 305,60"
       id="path2449" />
    <path
       sodipodi:type="arc"
       style="fill:#000000;fill-opacity:1;stroke:none;stroke-width:2;stroke-linejoin:miter;marker:none;stroke-miterlimit:4;stroke-dasharray:none;stroke-opacity:1;visibility:visible;display:inline;overflow:visible;enable-background:accumulate"
       id="path2451"
       sodipodi:cx="105"
       sodipodi:cy="25"
       sodipodi:rx="2"
       sodipodi:ry="2"
       d="M 107,25 A 2,2 0 1 1 103,25 A 2,2 0 1 1 107,25 z"
       transform="matrix(1.25,0,0,1.25,158.76733,18.545418)" />
  </g>
</svg>
