<?xml version="1.0" encoding="UTF-8" standalone="no"?>
<!-- Generator: Adobe Illustrator 12.0.1, SVG Export Plug-In . SVG Version: 6.00 Build 51448)  -->

<svg
   version="1.1"
   id="Ebene_1"
   width="1065.992"
   height="572.291"
   viewBox="0 0 1065.992 572.291"
   overflow="visible"
   enable-background="new 0 0 1065.992 572.291"
   xml:space="preserve"
   sodipodi:docname="DNS.svg"
   inkscape:version="1.1.1 (3bf5ae0d25, 2021-09-20)"
   xmlns:inkscape="http://www.inkscape.org/namespaces/inkscape"
   xmlns:sodipodi="http://sodipodi.sourceforge.net/DTD/sodipodi-0.dtd"
   xmlns="http://www.w3.org/2000/svg"
   xmlns:svg="http://www.w3.org/2000/svg"><defs
   id="defs83" /><sodipodi:namedview
   id="namedview81"
   pagecolor="#ffffff"
   bordercolor="#666666"
   borderopacity="1.0"
   inkscape:pageshadow="2"
   inkscape:pageopacity="0.0"
   inkscape:pagecheckerboard="0"
   showgrid="false"
   inkscape:zoom="1.9910489"
   inkscape:cx="495.96974"
   inkscape:cy="290.04812"
   inkscape:window-width="3749"
   inkscape:window-height="2111"
   inkscape:window-x="91"
   inkscape:window-y="0"
   inkscape:window-maximized="1"
   inkscape:current-layer="Ebene_1" />
<style
   type="text/css"
   id="style2">
<![CDATA[
@font-face{font-family:'Myriad-Roman';src:url("data:;base64,\
T1RUTwADACAAAQAQQ0ZGIPgEQ/EAAACgAAAG/UdQT1O158ctAAAHoAAAAcZjbWFwAikB1AAAADwA\
AABkAAAAAQAAAAMAAAAMAAQAWAAAABIAEAADAAIALgBhAGcAaQBrAHAAdAB3//8AAAAuAGEAYwBp\
AGsAbQByAHf////T/6H/oP+f/57/nf+c/5oAAQAAAAAAAAAAAAAAAAAAAAAAAAEABAIAAQEBDU15\
cmlhZC1Sb21hbgABAQEg+BsB+BgEXfuO+vr50wUdAACkAw33fQ/3lhHFHAbDEgABAQGqQ29weXJp\
Z2h0IChjKSAxOTkyLCAxOTk0IEFkb2JlIFN5c3RlbXMgSW5jb3Jwb3JhdGVkLiAgQWxsIFJpZ2h0\
cyBSZXNlcnZlZC5NeXJpYWQgaXMgYSB0cmFkZW1hcmsgb2YgQWRvYmUgU3lzdGVtcyBJbmNvcnBv\
cmF0ZWQgbWF5IGJlIHJlZ2lzdGVyZWQgaW4gY2VydGFpbiBqdXJpc2RpY3Rpb25zLgAAAQAPAABC\
AABEBABKAABMAABOAwBTAgBYAAASAgABAAQAIgCUANUBRAGfAeACbAKgAtsDVQOdA94ESQSTBOgF\
LgWZ+7cOgPcSAb/3CwP3A4AVr6Omr7BzpWhocnBnZ6NwrR8OdoDManb3i8j3DswSruP3X+MTvPgy\
970V7Gfw+ylOUHpyYx6fUAWirbqYuRvujJZCYxqBB/tPjCNL+wkaRb1G7dDArbGlHo4GE3yTTgXa\
BoasibS1GjW6FRO8goqBiIIeYn1iY0sbX2Wlxen3AZzriR8OVIDS+AHRAbHkA/gn3hWAcmp/WRsr\
Q9D3BPDH3vcDu6x/gKAfn84FmHNdmFcb+zIl+wH7Kfsp6ij3Jsy+nJaiHw7IgNJkdvg+0PdrdxKx\
5Peo4xO8+Cf5WhX7tIkHsXZZrkAb+wkmKfs2jB/7J+Yo9wnaxbTBph6NBhN8jzcF2gaIrIq8thr4\
3Qcz/I8VfYp/iH8eE7xKe1VjUBstWtzu9cHb5s27XVSYH45/jH1/Gg6JgdD/AKeAAP8AP4AA9yPK\
AbHg95XgA/hi93YVjZWMmZ0a5GL3H/sy+yE0+wf7J/sl5Sj3KNjBnJmqHnvJBX5rZIBMGzNAvPcL\
iR+MyhXIkrHd5RvtozNUih8O+2egdvg1zvc60gHc4wP3PRb4NfcIzvsJpQfVn83VpZyGhZkels8F\
knpxkmsbY19+a2ofYmR7TUcadEhIzvw1Bw7D+2XQ9yLO9/rPgHcSseT3pOMT7Ph79/QVE9zGjLKO\
rR49BhPsiEMFiQazdV62Nxv7BCAv+zj7G+El9wzWwK+4pR+NVgb7D0lcMU9ZnaBrHnVHBXGyy33F\
G8jPmra7H7m2os73BBoz9xwVe4l6hn0eUnlaaVQbLVrb6fcFx9LfzLVhV5sfj3+Mfn0aDvuhoHb4\
eHf3AfcFEsf3BSfjE+j3NRb4eDP8eAcT8Lb40RWuoaWqqnWkaWl0cmxsoXGsHw5poHb4eHf3incB\
1OMD9zX5WhUz/Vrj90oGuL73Ovt9BfYG+2n3sfdP91sFIgb7I/s7fXt7dX96GYkGDvffoHb4O9OA\
dxLU4fdt4fdt4RQcE9zUFuH3uAaajZqQmB63mbS3wRvOrVQ9H/u24ffAB5qOm4+YHrWbsbC+G9Gu\
VC0f+6bh97EH9zwstUpdbH91bh53fHd3fG8IiQbEdlmzShs6XmBdcB+IBhO8h9kFPgaNY41jWBoO\
v6B2+DvTgHcS1OP3gOMT2NQW4/e4BpmNm4+WHrybuLTEG96oST0f+6vj97UH9zojs0g7U15ecx6J\
BhO4htoFPQaOY4xjWBoOuYDN+ArNAbHk97nmA/ejgBX3B/cR2fdI9yct8Psf+xkgLPs2+y3xK/cW\
H43NFTZP2/XnuOvy87QkOfsCTDw3Hw7N+0V290/Q+APRgHcS1OP3ruQT7NT7WhXj95uNBluowm/M\
G/cF9uH3QvcnM+77Cj1RaU9oH4kGE9yG3gU8Bo5djFlNGuNeFZaOmI2XHhPszZzEtccb6L04KvsD\
VT8uTVW1yHwfiJaKmJcaDvtEoHb4MN6Ad6d3EtXiE8jUFuP3lgaajJmNmB7Ml7e6yRuXlIqKlR8T\
mN0HE8iNg4SMghtQVWJKdR+IBhOoh+oFPgaOXoxaUhoOIIDN+AvMAcDg9xngA7OiFXetvH3AG/cF\
zsfh1F+1OKofTKNvnbQar6epv7iueoCeHqDKBZxxYJhaGyRLSz1RtFzjax/Lc6R0YRpibWxMX12d\
m3AeDvtAgNRjdvg0zhLo4RNw6PjRFTJASNb7nAcTsFKVYKNwHnSgrH20G62mkZGcH4fOBYd+fYlz\
G1p6rccf95n3Es77EvcIBw73fYvf98foi3cSnflTE7Cd+HgV9yb8eAXbBtn3egUT0Jy/mr6XxQiN\
BpdSmVucVNX7exjbBvcw+HgFNAZG+4d7Un5Yg1oZiAaAvH2/ecRA94YYQQY8+4p7VntXgFoZiAaC\
vX6+fsFK94kYDoCW+TaW+12X9y6WvJYG95mQ/GaRcJQHHqBgRYKZ/wwJHnoJmZmfDArOCuMLzpEM\
DOOPDA33YxT4ixUAAAAAAQAAAAoAHgAsAAFERkxUAAgABAAAAAD//wABAAAAAWtlcm4ACAAAAAEA\
AAABAAQAAgAAAAEACAABAX4ABAAAAA8AKAAyAEwAVgBcAH4AjAC2ALwAwgDgAP4BQAFGAWAAAgAQ\
//wAEf/4AAYAAf/4AAIAAQAE//oABf/6AAz/+gAQAA0AAgAB/+wAEf//AAEAAf/0AAgAAf/fAAP/\
9AAE//QABf/0AAf/9AAM//QAD//3ABAACwADAAH/7AAGAAQADf/6AAoAAgARAAUABwAHAAEACAAR\
AAoAEgALABIADAABAA0AEgAOABEAEQAOAAEAEP/8AAEAEP/8AAcAAf/nAAMAAQAEAAEABQABAAcA\
AQAMAAEAEf/5AAcAAf/nAAMAAQAEAAEABQABAAcAAQAMAAEAEf/8ABAAAf/LAAL/+gAD//oABP/6\
AAX/+gAGAB4AB//4AAgABAAJAAQACgAEAAsABAAM//oADQAEAA4ABAAQABgAEQAaAAEAAf/4AAYA\
A//6AAT/+gAF//oAB//6AAz/+gARAAQABwAB/9kAAv/8AAP/9wAE//cABf/3AAz/9wAP//4AAgAC\
AAIABwAAAAkAEQAGAAA=")}
]]>
</style>
<path
   fill="#D3E2EA"
   stroke="#BD1220"
   stroke-width="3"
   d="M469.216,199.793c0,6.627-5.372,12-12,12H311.137  c-6.627,0-12-5.373-12-12V167.1c0-6.627,5.373-12,12-12h146.079c6.628,0,12,5.373,12,12V199.793z"
   id="path4" />
<text
   transform="translate(358.3477,192.6123)"
   fill="#006ab2"
   font-family="Myriad-Roman"
   font-size="36px"
   id="text6" />
<path
   fill="#D3E2EA"
   stroke="#006AB2"
   stroke-width="3"
   d="M667.642,341.525c0,6.627-5.373,12-12,12H509.563  c-6.628,0-12-5.373-12-12v-32.693c0-6.627,5.372-12,12-12h146.079c6.627,0,12,5.373,12,12V341.525z"
   id="path8" />
<text
   transform="matrix(1 0 0 1 571.4258 334.3442)"
   fill="#006AB2"
   font-family="'Myriad-Roman'"
   font-size="36"
   id="text10">...</text>
<path
   fill="#D3E2EA"
   stroke="#BD1220"
   stroke-width="3"
   d="M370.006,483.258c0,6.627-5.373,12-12,12h-146.08  c-6.627,0-12-5.373-12-12v-32.693c0-6.627,5.373-12,12-12h146.08c6.627,0,12,5.373,12,12V483.258z"
   id="path12" />
<text
   transform="translate(265.7964,476.0767)"
   fill="#006ab2"
   font-family="Myriad-Roman"
   font-size="36px"
   id="text14" />
<path
   fill="#D3E2EA"
   stroke="#006AB2"
   stroke-width="3"
   d="M568.43,483.256c0,6.629-5.373,12-12,12H410.352c-6.629,0-12-5.371-12-12  v-32.691c0-6.629,5.372-12,12-12H556.43c6.627,0,12,5.371,12,12V483.256z"
   id="path16" />
<text
   transform="matrix(1 0 0 1 472.2139 476.0757)"
   fill="#006AB2"
   font-family="'Myriad-Roman'"
   font-size="36"
   id="text18">...</text>
<path
   fill="#D3E2EA"
   stroke="#006AB2"
   stroke-width="3"
   d="M171.58,483.256c0,6.629-5.373,12-12,12H13.5c-6.628,0-12-5.371-12-12  v-32.691c0-6.629,5.372-12,12-12H159.58c6.627,0,12,5.371,12,12V483.256z"
   id="path20" />
<text
   transform="matrix(1 0 0 1 59.2705 476.0757)"
   fill="#006AB2"
   font-family="'Myriad-Roman'"
   font-size="36"
   id="text22">nds</text>
<path
   fill="#D3E2EA"
   stroke="#BD1220"
   stroke-width="3"
   d="M270.792,341.361c0,6.628-5.373,12-12,12h-146.08  c-6.627,0-12-5.372-12-12v-32.693c0-6.627,5.373-12,12-12h146.08c6.627,0,12,5.373,12,12V341.361z"
   id="path24" />
<text
   transform="translate(113.3394,334.1807)"
   fill="#006ab2"
   font-family="Myriad-Roman"
   font-size="36px"
   id="text26" />
<path
   fill="#D3E2EA"
   stroke="#006AB2"
   stroke-width="3"
   d="M469.217,341.525c0,6.627-5.373,12-12,12h-146.08  c-6.627,0-12-5.373-12-12v-32.693c0-6.627,5.373-12,12-12h146.08c6.627,0,12,5.373,12,12V341.525z"
   id="path28" /><path
   fill="#d3e2ea"
   stroke="#006ab2"
   stroke-width="3"
   d="m 1063.6106,342.57227 c 0,6.627 -5.373,12 -12,12 H 905.53057 c -6.627,0 -12,-5.373 -12,-12 v -32.693 c 0,-6.627 5.373,-12 12,-12 h 146.08003 c 6.627,0 12,5.373 12,12 z"
   id="path28-3" />
<text
   transform="matrix(1 0 0 1 366.5376 334.3442)"
   fill="#006AB2"
   font-family="'Myriad-Roman'"
   font-size="36"
   id="text30">fsf</text>
<path
   fill="#D3E2EA"
   stroke="#006AB2"
   stroke-width="3"
   d="M1064.492,199.793c0,6.627-5.373,12-12,12H906.413  c-6.628,0-12-5.373-12-12V167.1c0-6.627,5.372-12,12-12h146.079c6.627,0,12,5.373,12,12V199.793z"
   id="path32" />
<text
   transform="translate(968.2754,192.6123)"
   fill="#006ab2"
   font-family="Myriad-Roman"
   font-size="36px"
   id="text34">fr</text>
<path
   fill="#D3E2EA"
   stroke="#006AB2"
   stroke-width="3"
   d="M866.067,199.516c0,6.627-5.373,12-12,12H707.988  c-6.628,0-12.001-5.373-12.001-12v-32.693c0-6.627,5.373-12,12.001-12h146.079c6.627,0,12,5.373,12,12V199.516z"
   id="path36" />
<text
   fill="#006ab2"
   font-family="Myriad-Roman"
   font-size="36px"
   id="text38"
   x="753.4884"
   y="191.20032">org</text>
<path
   fill="#D3E2EA"
   stroke="#006AB2"
   stroke-width="3"
   d="M667.641,199.793c0,6.627-5.373,12-12,12h-146.08  c-6.627,0-12-5.373-12-12V167.1c0-6.627,5.373-12,12-12h146.08c6.627,0,12,5.373,12,12V199.793z"
   id="path40" />
<text
   transform="matrix(1 0 0 1 557.6348 192.6123)"
   fill="#006AB2"
   font-family="'Myriad-Roman'"
   font-size="36"
   id="text42">net</text>
<path
   fill="#D3E2EA"
   stroke="#006AB2"
   stroke-width="3"
   d="M270.792,200.355c0,6.627-5.373,12-12,12h-146.08  c-6.627,0-12-5.373-12-12v-32.693c0-6.627,5.373-12,12-12h146.08c6.627,0,12,5.373,12,12V200.355z"
   id="path44" />
<text
   transform="matrix(1 0 0 1 152.7939 193.1743)"
   fill="#006AB2"
   font-family="'Myriad-Roman'"
   font-size="36"
   id="text46">com</text>
<path
   fill="#D3E2EA"
   stroke="#BD1220"
   stroke-width="3"
   d="M469.218,58.062c0,6.627-5.373,12-12,12h-146.08c-6.627,0-12-5.373-12-12  V25.369c0-6.627,5.373-12,12-12h146.08c6.627,0,12,5.373,12,12V58.062z"
   id="path48" />
<text
   transform="matrix(1 0 0 1 375.1333 50.2192)"
   fill="#006AB2"
   font-family="'Myriad-Roman'"
   font-size="60"
   id="text50">.</text>
<line
   fill="none"
   stroke="#006AB2"
   stroke-width="3"
   x1="384.177"
   y1="211.794"
   x2="384.176"
   y2="296.832"
   id="line52" />
<line
   fill="none"
   stroke="#006AB2"
   stroke-width="3"
   x1="185.752"
   y1="353.526"
   x2="89.375"
   y2="438.565"
   id="line54" />
<line
   fill="none"
   stroke="#006AB2"
   stroke-width="3"
   x1="185.752"
   y1="353.526"
   x2="483.39"
   y2="438.566"
   id="line56" />
<line
   fill="none"
   stroke="#006AB2"
   stroke-width="3"
   x1="384.177"
   y1="70.062"
   x2="185.751"
   y2="155.1"
   id="line58" />
<line
   fill="none"
   stroke="#006AB2"
   stroke-width="3"
   x1="384.177"
   y1="70.062"
   x2="582.602"
   y2="155.1"
   id="line60" />
<line
   fill="none"
   stroke="#006AB2"
   stroke-width="3"
   x1="384.177"
   y1="211.794"
   x2="582.602"
   y2="296.832"
   id="line62" />
<line
   fill="none"
   stroke="#006AB2"
   stroke-width="3"
   x1="384.177"
   y1="70.062"
   x2="781.026"
   y2="155.1"
   id="line64" />
<line
   fill="none"
   stroke="#006AB2"
   stroke-width="3"
   x1="384.177"
   y1="70.062"
   x2="982.287"
   y2="155.1"
   id="line66" />
<line
   fill="none"
   stroke="#BD1220"
   stroke-width="3"
   x1="185.751"
   y1="296.832"
   x2="384.177"
   y2="211.794"
   id="line68" />
<line
   fill="none"
   stroke="#BD1220"
   stroke-width="3"
   x1="185.752"
   y1="353.526"
   x2="290.634"
   y2="438.565"
   id="line70" />
<line
   fill="none"
   stroke="#BD1220"
   stroke-width="3"
   x1="384.177"
   y1="70.062"
   x2="384.176"
   y2="155.1"
   id="line72" />
<text
   transform="translate(394.4858,563.2905)"
   fill="#bd1220"
   font-family="Myriad-Roman"
   font-size="36px"
   id="text74">eskool.gitlab.io.</text>
<path
   fill="none"
   stroke="#BD1220"
   stroke-width="3"
   d="M328.344,518.796c9.146,9.146,33.157,35.989,55.833,35.989"
   id="path76" />
<polygon
   fill="#BD1220"
   stroke="#BD1220"
   stroke-width="3"
   points="334.013,514.443 323.991,524.465 318.98,509.432 "
   id="polygon78" />
<text
   xml:space="preserve"
   style="font-style:normal;font-weight:normal;font-size:40px;line-height:1.25;font-family:sans-serif;letter-spacing:0px;word-spacing:0px;fill:#000000;fill-opacity:1;stroke:none"
   x="121.26054"
   y="337.36737"
   id="text8408"><tspan
     sodipodi:role="line"
     id="tspan8406"
     x="121.26054"
     y="337.36737"
     style="fill:#006ab2;fill-opacity:1">gitlab</tspan></text><text
   xml:space="preserve"
   style="font-style:normal;font-weight:normal;font-size:40px;line-height:1.25;font-family:sans-serif;letter-spacing:0px;word-spacing:0px;fill:#000000;fill-opacity:1;stroke:none"
   x="224.21065"
   y="479.86108"
   id="text20254"><tspan
     sodipodi:role="line"
     id="tspan20252"
     x="224.21065"
     y="479.86108"
     style="fill:#006ab2;fill-opacity:1">eskool</tspan></text><text
   xml:space="preserve"
   style="font-style:normal;font-weight:normal;font-size:40px;line-height:1.25;font-family:sans-serif;letter-spacing:0px;word-spacing:0px;fill:#000000;fill-opacity:1;stroke:none"
   x="364.99792"
   y="192.70042"
   id="text31376"><tspan
     sodipodi:role="line"
     id="tspan31374"
     x="364.99792"
     y="192.70042"
     style="fill:#006ab2;fill-opacity:1">io</tspan></text></svg>
