<?xml version="1.0" encoding="UTF-8" standalone="no"?>
<!-- Created with Inkscape (http://www.inkscape.org/) -->

<svg
   width="700"
   height="500"
   viewBox="0 0 210 297"
   version="1.1"
   id="svg5"
   inkscape:version="1.1.1 (3bf5ae0d25, 2021-09-20, custom)"
   sodipodi:docname="osi-pdu-par-couche.svg"
   xmlns:inkscape="http://www.inkscape.org/namespaces/inkscape"
   xmlns:sodipodi="http://sodipodi.sourceforge.net/DTD/sodipodi-0.dtd"
   xmlns="http://www.w3.org/2000/svg"
   xmlns:svg="http://www.w3.org/2000/svg">
  <sodipodi:namedview
     id="namedview7"
     pagecolor="#ffffff"
     bordercolor="#666666"
     borderopacity="1.0"
     inkscape:pageshadow="2"
     inkscape:pageopacity="0.0"
     inkscape:pagecheckerboard="0"
     inkscape:document-units="mm"
     showgrid="false"
     inkscape:zoom="1.5554293"
     inkscape:cx="505.96964"
     inkscape:cy="289.95211"
     inkscape:window-width="3769"
     inkscape:window-height="2132"
     inkscape:window-x="71"
     inkscape:window-y="0"
     inkscape:window-maximized="1"
     inkscape:current-layer="layer1"
     inkscape:lockguides="false" />
  <defs
     id="defs2">
    <marker
       style="overflow:visible"
       id="EmptyTriangleOutL"
       refX="0.0"
       refY="0.0"
       orient="auto"
       inkscape:stockid="EmptyTriangleOutL"
       inkscape:isstock="true">
      <path
         transform="scale(0.8) translate(-6,0)"
         style="fill-rule:evenodd;fill:#FF0000;stroke:#FF0000;stroke-width:1.0pt"
         d="M 5.77,0.0 L -2.88,5.0 L -2.88,-5.0 L 5.77,0.0 z "
         id="path47448" />
    </marker>
    <marker
       style="overflow:visible"
       id="marker50074"
       refX="0.0"
       refY="0.0"
       orient="auto"
       inkscape:stockid="EmptyTriangleInL"
       inkscape:isstock="true">
      <path
         transform="scale(-0.8) translate(-6,0)"
         style="fill-rule:evenodd;fill:#FF0000;stroke:#FF0000;stroke-width:1.0pt"
         d="M 5.77,0.0 L -2.88,5.0 L -2.88,-5.0 L 5.77,0.0 z "
         id="path50072" />
    </marker>
    <marker
       style="overflow:visible"
       id="TriangleInL"
       refX="0.0"
       refY="0.0"
       orient="auto"
       inkscape:stockid="TriangleInL"
       inkscape:isstock="true">
      <path
         transform="scale(-0.8)"
         style="fill-rule:evenodd;fill:#FF0000;stroke:#FF0000;stroke-width:1.0pt"
         d="M 5.77,0.0 L -2.88,5.0 L -2.88,-5.0 L 5.77,0.0 z "
         id="path47421" />
    </marker>
    <marker
       style="overflow:visible"
       id="EmptyTriangleInL"
       refX="0.0"
       refY="0.0"
       orient="auto"
       inkscape:stockid="EmptyTriangleInL"
       inkscape:isstock="true">
      <path
         transform="scale(-0.8) translate(-6,0)"
         style="fill-rule:evenodd;fill:context-fill;stroke:#FF0000;stroke-width:1.0pt"
         d="M 5.77,0.0 L -2.88,5.0 L -2.88,-5.0 L 5.77,0.0 z "
         id="path47439" />
    </marker>
    <marker
       style="overflow:visible"
       id="Tail"
       refX="0.0"
       refY="0.0"
       orient="auto"
       inkscape:stockid="Tail"
       inkscape:isstock="true">
      <g
         transform="scale(-1.2)"
         id="g47336">
        <path
           style="fill:none;fill-rule:evenodd;stroke:#FF0000;stroke-width:0.8;stroke-linecap:round"
           d="M -3.8048674,-3.9585227 L 0.54352094,0"
           id="path47324" />
        <path
           style="fill:none;fill-rule:evenodd;stroke:#FF0000;stroke-width:0.8;stroke-linecap:round"
           d="M -1.2866832,-3.9585227 L 3.0617053,0"
           id="path47326" />
        <path
           style="fill:none;fill-rule:evenodd;stroke:#FF0000;stroke-width:0.8;stroke-linecap:round"
           d="M 1.3053582,-3.9585227 L 5.6537466,0"
           id="path47328" />
        <path
           style="fill:none;fill-rule:evenodd;stroke:#FF0000;stroke-width:0.8;stroke-linecap:round"
           d="M -3.8048674,4.1775838 L 0.54352094,0.21974226"
           id="path47330" />
        <path
           style="fill:none;fill-rule:evenodd;stroke:#FF0000;stroke-width:0.8;stroke-linecap:round"
           d="M -1.2866832,4.1775838 L 3.0617053,0.21974226"
           id="path47332" />
        <path
           style="fill:none;fill-rule:evenodd;stroke:#FF0000;stroke-width:0.8;stroke-linecap:round"
           d="M 1.3053582,4.1775838 L 5.6537466,0.21974226"
           id="path47334" />
      </g>
    </marker>
    <marker
       style="overflow:visible;"
       id="Arrow2Mend"
       refX="0.0"
       refY="0.0"
       orient="auto"
       inkscape:stockid="Arrow2Mend"
       inkscape:isstock="true">
      <path
         transform="scale(0.6) rotate(180) translate(0,0)"
         d="M 8.7185878,4.0337352 L -2.2072895,0.016013256 L 8.7185884,-4.0017078 C 6.9730900,-1.6296469 6.9831476,1.6157441 8.7185878,4.0337352 z "
         style="stroke:#FF0000;fill-rule:evenodd;fill:#FF0000;stroke-width:0.62500000;stroke-linejoin:round;"
         id="path47315" />
    </marker>
    <marker
       style="overflow:visible"
       id="Arrow2Mstart"
       refX="0.0"
       refY="0.0"
       orient="auto"
       inkscape:stockid="Arrow2Mstart"
       inkscape:isstock="true">
      <path
         transform="scale(0.6) translate(0,0)"
         d="M 8.7185878,4.0337352 L -2.2072895,0.016013256 L 8.7185884,-4.0017078 C 6.9730900,-1.6296469 6.9831476,1.6157441 8.7185878,4.0337352 z "
         style="stroke:#FF0000;fill-rule:evenodd;fill:#FF0000;stroke-width:0.62500000;stroke-linejoin:round"
         id="path47312" />
    </marker>
    <marker
       style="overflow:visible;"
       id="Arrow2Lend"
       refX="0.0"
       refY="0.0"
       orient="auto"
       inkscape:stockid="Arrow2Lend"
       inkscape:isstock="true">
      <path
         transform="scale(1.1) rotate(180) translate(1,0)"
         d="M 8.7185878,4.0337352 L -2.2072895,0.016013256 L 8.7185884,-4.0017078 C 6.9730900,-1.6296469 6.9831476,1.6157441 8.7185878,4.0337352 z "
         style="stroke:#FF0000;fill-rule:evenodd;fill:#FF0000;stroke-width:0.62500000;stroke-linejoin:round;"
         id="path47309" />
    </marker>
    <marker
       style="overflow:visible"
       id="Arrow2Lstart"
       refX="0.0"
       refY="0.0"
       orient="auto"
       inkscape:stockid="Arrow2Lstart"
       inkscape:isstock="true">
      <path
         transform="scale(1.1) translate(1,0)"
         d="M 8.7185878,4.0337352 L -2.2072895,0.016013256 L 8.7185884,-4.0017078 C 6.9730900,-1.6296469 6.9831476,1.6157441 8.7185878,4.0337352 z "
         style="stroke:#FF0000;fill-rule:evenodd;fill:#FF0000;stroke-width:0.62500000;stroke-linejoin:round"
         id="path47306" />
    </marker>
    <marker
       style="overflow:visible"
       id="Arrow1Sstart"
       refX="0.0"
       refY="0.0"
       orient="auto"
       inkscape:stockid="Arrow1Sstart"
       inkscape:isstock="true">
      <path
         transform="scale(0.2) translate(6,0)"
         style="fill-rule:evenodd;fill:#FF0000;stroke:#FF0000;stroke-width:1.0pt"
         d="M 0.0,0.0 L 5.0,-5.0 L -12.5,0.0 L 5.0,5.0 L 0.0,0.0 z "
         id="path47300" />
    </marker>
    <marker
       style="overflow:visible;"
       id="Arrow1Lend"
       refX="0.0"
       refY="0.0"
       orient="auto"
       inkscape:stockid="Arrow1Lend"
       inkscape:isstock="true">
      <path
         transform="scale(0.8) rotate(180) translate(12.5,0)"
         style="fill-rule:evenodd;fill:#FF0000;stroke:#FF0000;stroke-width:1.0pt;"
         d="M 0.0,0.0 L 5.0,-5.0 L -12.5,0.0 L 5.0,5.0 L 0.0,0.0 z "
         id="path47291" />
    </marker>
    <marker
       style="overflow:visible"
       id="Arrow1Lstart"
       refX="0.0"
       refY="0.0"
       orient="auto"
       inkscape:stockid="Arrow1Lstart"
       inkscape:isstock="true">
      <path
         transform="scale(0.8) translate(12.5,0)"
         style="fill-rule:evenodd;fill:#FF0000;stroke:#FF0000;stroke-width:1.0pt"
         d="M 0.0,0.0 L 5.0,-5.0 L -12.5,0.0 L 5.0,5.0 L 0.0,0.0 z "
         id="path47288" />
    </marker>
    <marker
       style="overflow:visible"
       id="Arrow1Lstart-7"
       refX="0"
       refY="0"
       orient="auto"
       inkscape:stockid="Arrow1Lstart"
       inkscape:isstock="true">
      <path
         transform="matrix(0.8,0,0,0.8,10,0)"
         style="fill:#FF0000;fill-rule:evenodd;stroke:#FF0000;stroke-width:1pt"
         d="M 0,0 5,-5 -12.5,0 5,5 Z"
         id="path47288-8" />
    </marker>
    <marker
       style="overflow:visible"
       id="Arrow1Lend-4"
       refX="0"
       refY="0"
       orient="auto"
       inkscape:stockid="Arrow1Lend"
       inkscape:isstock="true">
      <path
         transform="matrix(-0.8,0,0,-0.8,-10,0)"
         style="fill:#FF0000;fill-rule:evenodd;stroke:#FF0000;stroke-width:1pt"
         d="M 0,0 5,-5 -12.5,0 5,5 Z"
         id="path47291-5" />
    </marker>
    <marker
       style="overflow:visible"
       id="Arrow1Lstart-3"
       refX="0"
       refY="0"
       orient="auto"
       inkscape:stockid="Arrow1Lstart"
       inkscape:isstock="true">
      <path
         transform="matrix(0.8,0,0,0.8,10,0)"
         style="fill:#FF0000;fill-rule:evenodd;stroke:#FF0000;stroke-width:1pt"
         d="M 0,0 5,-5 -12.5,0 5,5 Z"
         id="path47288-6" />
    </marker>
    <marker
       style="overflow:visible"
       id="Arrow1Lend-1"
       refX="0"
       refY="0"
       orient="auto"
       inkscape:stockid="Arrow1Lend"
       inkscape:isstock="true">
      <path
         transform="matrix(-0.8,0,0,-0.8,-10,0)"
         style="fill:#FF0000;fill-rule:evenodd;stroke:#FF0000;stroke-width:1pt"
         d="M 0,0 5,-5 -12.5,0 5,5 Z"
         id="path47291-0" />
    </marker>
    <marker
       style="overflow:visible"
       id="Arrow1Lstart-32"
       refX="0"
       refY="0"
       orient="auto"
       inkscape:stockid="Arrow1Lstart"
       inkscape:isstock="true">
      <path
         transform="matrix(0.8,0,0,0.8,10,0)"
         style="fill:#FF0000;fill-rule:evenodd;stroke:#FF0000;stroke-width:1pt"
         d="M 0,0 5,-5 -12.5,0 5,5 Z"
         id="path47288-0" />
    </marker>
    <marker
       style="overflow:visible"
       id="Arrow1Lend-6"
       refX="0"
       refY="0"
       orient="auto"
       inkscape:stockid="Arrow1Lend"
       inkscape:isstock="true">
      <path
         transform="matrix(-0.8,0,0,-0.8,-10,0)"
         style="fill:#FF0000;fill-rule:evenodd;stroke:#FF0000;stroke-width:1pt"
         d="M 0,0 5,-5 -12.5,0 5,5 Z"
         id="path47291-1" />
    </marker>
    <marker
       style="overflow:visible"
       id="Arrow1Lstart-5"
       refX="0"
       refY="0"
       orient="auto"
       inkscape:stockid="Arrow1Lstart"
       inkscape:isstock="true">
      <path
         transform="matrix(0.8,0,0,0.8,10,0)"
         style="fill:#FF0000;fill-rule:evenodd;stroke:#FF0000;stroke-width:1pt"
         d="M 0,0 5,-5 -12.5,0 5,5 Z"
         id="path47288-4" />
    </marker>
    <marker
       style="overflow:visible"
       id="Arrow1Lend-7"
       refX="0"
       refY="0"
       orient="auto"
       inkscape:stockid="Arrow1Lend"
       inkscape:isstock="true">
      <path
         transform="matrix(-0.8,0,0,-0.8,-10,0)"
         style="fill:#FF0000;fill-rule:evenodd;stroke:#FF0000;stroke-width:1pt"
         d="M 0,0 5,-5 -12.5,0 5,5 Z"
         id="path47291-6" />
    </marker>
    <marker
       style="overflow:visible"
       id="Arrow1Lstart-9"
       refX="0"
       refY="0"
       orient="auto"
       inkscape:stockid="Arrow1Lstart"
       inkscape:isstock="true">
      <path
         transform="matrix(0.8,0,0,0.8,10,0)"
         style="fill:#FF0000;fill-rule:evenodd;stroke:#FF0000;stroke-width:1pt"
         d="M 0,0 5,-5 -12.5,0 5,5 Z"
         id="path47288-3" />
    </marker>
    <marker
       style="overflow:visible"
       id="Arrow1Lend-74"
       refX="0"
       refY="0"
       orient="auto"
       inkscape:stockid="Arrow1Lend"
       inkscape:isstock="true">
      <path
         transform="matrix(-0.8,0,0,-0.8,-10,0)"
         style="fill:#FF0000;fill-rule:evenodd;stroke:#FF0000;stroke-width:1pt"
         d="M 0,0 5,-5 -12.5,0 5,5 Z"
         id="path47291-52" />
    </marker>
    <marker
       style="overflow:visible"
       id="Arrow1Lstart-74"
       refX="0"
       refY="0"
       orient="auto"
       inkscape:stockid="Arrow1Lstart"
       inkscape:isstock="true">
      <path
         transform="matrix(0.8,0,0,0.8,10,0)"
         style="fill:#FF0000;fill-rule:evenodd;stroke:#FF0000;stroke-width:1pt"
         d="M 0,0 5,-5 -12.5,0 5,5 Z"
         id="path47288-43" />
    </marker>
    <marker
       style="overflow:visible"
       id="Arrow1Lend-0"
       refX="0"
       refY="0"
       orient="auto"
       inkscape:stockid="Arrow1Lend"
       inkscape:isstock="true">
      <path
         transform="matrix(-0.8,0,0,-0.8,-10,0)"
         style="fill:#FF0000;fill-rule:evenodd;stroke:#FF0000;stroke-width:1pt"
         d="M 0,0 5,-5 -12.5,0 5,5 Z"
         id="path47291-7" />
    </marker>
    <marker
       style="overflow:visible"
       id="Arrow1Lstart-6"
       refX="0"
       refY="0"
       orient="auto"
       inkscape:stockid="Arrow1Lstart"
       inkscape:isstock="true">
      <path
         transform="matrix(0.8,0,0,0.8,10,0)"
         style="fill:#FF0000;fill-rule:evenodd;stroke:#FF0000;stroke-width:1pt"
         d="M 0,0 5,-5 -12.5,0 5,5 Z"
         id="path47288-88" />
    </marker>
    <marker
       style="overflow:visible"
       id="Arrow1Lend-43"
       refX="0"
       refY="0"
       orient="auto"
       inkscape:stockid="Arrow1Lend"
       inkscape:isstock="true">
      <path
         transform="matrix(-0.8,0,0,-0.8,-10,0)"
         style="fill:#FF0000;fill-rule:evenodd;stroke:#FF0000;stroke-width:1pt"
         d="M 0,0 5,-5 -12.5,0 5,5 Z"
         id="path47291-14" />
    </marker>
  </defs>
  <g
     inkscape:label="Calque 1"
     inkscape:groupmode="layer"
     id="layer1">
    <rect
       style="fill:#4fc7d1;fill-opacity:0.98;stroke:#000601;stroke-width:1.1959;stroke-miterlimit:4;stroke-dasharray:none"
       id="rect930"
       width="110.61442"
       height="24.524595"
       x="-98.381172"
       y="33.272438" />
    <rect
       style="fill:#4fc7d1;fill-opacity:0.98;stroke:#000601;stroke-width:1.1959;stroke-miterlimit:4;stroke-dasharray:none"
       id="rect930-3"
       width="110.61442"
       height="24.524595"
       x="-98.381172"
       y="57.797035" />
    <text
       xml:space="preserve"
       style="font-style:normal;font-weight:normal;font-size:12.672px;line-height:1.25;font-family:sans-serif;fill:#000000;fill-opacity:1;stroke:none;stroke-width:0.495;paint-order:markers stroke fill"
       x="-87.673737"
       y="49.863853"
       id="text3244"><tspan
         sodipodi:role="line"
         id="tspan3242"
         style="font-size:12.672px;stroke-width:0.495;paint-order:markers stroke fill"
         x="-87.673737"
         y="49.863853">Application</tspan></text>
    <text
       xml:space="preserve"
       style="font-style:normal;font-weight:normal;font-size:12.672px;line-height:1.25;font-family:sans-serif;fill:#000000;fill-opacity:1;stroke:none;stroke-width:0.495"
       x="-92.088852"
       y="74.998878"
       id="text3244-6"><tspan
         sodipodi:role="line"
         id="tspan3242-7"
         style="font-size:12.672px;stroke-width:0.495"
         x="-92.088852"
         y="74.998878">Présentation</tspan></text>
    <rect
       style="fill:#4fc7d1;fill-opacity:0.98;stroke:#000601;stroke-width:1.1959;stroke-miterlimit:4;stroke-dasharray:none"
       id="rect930-3-5"
       width="110.61442"
       height="24.524595"
       x="-98.381172"
       y="82.321632" />
    <text
       xml:space="preserve"
       style="font-style:normal;font-weight:normal;font-size:12.672px;line-height:1.25;font-family:sans-serif;fill:#000000;fill-opacity:1;stroke:none;stroke-width:0.495"
       x="-77.008736"
       y="98.198853"
       id="text3244-6-3"><tspan
         sodipodi:role="line"
         id="tspan3242-7-5"
         style="font-size:12.672px;stroke-width:0.495"
         x="-77.008736"
         y="98.198853">Session</tspan></text>
    <rect
       style="fill:#4fc7d1;fill-opacity:0.98;stroke:#000601;stroke-width:1.1959;stroke-miterlimit:4;stroke-dasharray:none"
       id="rect930-3-6"
       width="110.61442"
       height="24.524595"
       x="-98.381172"
       y="106.84623" />
    <text
       xml:space="preserve"
       style="font-style:normal;font-weight:normal;font-size:12.672px;line-height:1.25;font-family:sans-serif;fill:#000000;fill-opacity:1;stroke:none;stroke-width:0.495"
       x="-81.937172"
       y="123.1927"
       id="text3244-6-2"><tspan
         sodipodi:role="line"
         id="tspan3242-7-9"
         style="font-size:12.672px;stroke-width:0.495"
         x="-81.937172"
         y="123.1927">Transport</tspan></text>
    <rect
       style="fill:#4fc7d1;fill-opacity:0.98;stroke:#000601;stroke-width:1.1959;stroke-miterlimit:4;stroke-dasharray:none"
       id="rect930-3-1"
       width="110.61442"
       height="24.524595"
       x="-98.381172"
       y="131.37082" />
    <text
       xml:space="preserve"
       style="font-style:normal;font-weight:normal;font-size:12.672px;line-height:1.25;font-family:sans-serif;fill:#000000;fill-opacity:1;stroke:none;stroke-width:0.495"
       x="-75.203682"
       y="147.55331"
       id="text3244-6-27"><tspan
         sodipodi:role="line"
         id="tspan3242-7-0"
         style="font-size:12.672px;stroke-width:0.495"
         x="-75.203682"
         y="147.55331">Réseau</tspan></text>
    <rect
       style="fill:#4fc7d1;fill-opacity:0.98;stroke:#000601;stroke-width:1.56619;stroke-miterlimit:4;stroke-dasharray:none"
       id="rect930-3-9"
       width="110.24413"
       height="42.204597"
       x="-98.381172"
       y="155.89542" />
    <text
       xml:space="preserve"
       style="font-style:normal;font-weight:normal;font-size:12.672px;line-height:1.25;font-family:sans-serif;fill:#000000;fill-opacity:1;stroke:none;stroke-width:0.495"
       x="-84.324966"
       y="172.40289"
       id="text3244-6-36"><tspan
         sodipodi:role="line"
         id="tspan3242-7-06"
         style="font-size:12.672px;stroke-width:0.495"
         x="-84.324966"
         y="172.40289">Liaison de</tspan><tspan
         sodipodi:role="line"
         style="font-size:12.672px;stroke-width:0.495"
         x="-84.324966"
         y="188.24289"
         id="tspan24617">Données</tspan></text>
    <rect
       style="fill:#4fc7d1;fill-opacity:0.98;stroke:#000601;stroke-width:1.1959;stroke-miterlimit:4;stroke-dasharray:none"
       id="rect930-3-2"
       width="110.61442"
       height="24.524595"
       x="-98.751457"
       y="198.10001" />
    <text
       xml:space="preserve"
       style="font-style:normal;font-weight:normal;font-size:12.672px;line-height:1.25;font-family:sans-serif;fill:#000000;fill-opacity:1;stroke:none;stroke-width:0.495"
       x="-79.555115"
       y="214.72661"
       id="text3244-6-6"><tspan
         sodipodi:role="line"
         id="tspan3242-7-1"
         style="font-size:12.672px;stroke-width:0.495"
         x="-79.555115"
         y="214.72661">Physique</tspan></text>
    <text
       xml:space="preserve"
       style="font-style:normal;font-weight:normal;font-size:23.76px;line-height:1.25;font-family:sans-serif;fill:#000000;fill-opacity:1;stroke:none;stroke-width:0.594"
       x="96.14061"
       y="207.3709"
       id="text39249"><tspan
         sodipodi:role="line"
         id="tspan39247"
         style="stroke-width:0.594" /></text>
    <rect
       style="fill:#4fc7d1;fill-opacity:0.98;stroke:#000601;stroke-width:1.1959;stroke-miterlimit:4;stroke-dasharray:none"
       id="rect930-8"
       width="110.61442"
       height="24.524595"
       x="198.7496"
       y="33.272438" />
    <rect
       style="fill:#4fc7d1;fill-opacity:0.98;stroke:#000601;stroke-width:1.1959;stroke-miterlimit:4;stroke-dasharray:none"
       id="rect930-3-7"
       width="110.61442"
       height="24.524595"
       x="198.7496"
       y="57.797035" />
    <text
       xml:space="preserve"
       style="font-style:normal;font-weight:normal;font-size:12.672px;line-height:1.25;font-family:sans-serif;fill:#000000;fill-opacity:1;stroke:none;stroke-width:0.495"
       x="209.45711"
       y="49.863853"
       id="text3244-9"><tspan
         sodipodi:role="line"
         id="tspan3242-2"
         style="font-size:12.672px;stroke-width:0.495"
         x="209.45711"
         y="49.863853">Application</tspan></text>
    <text
       xml:space="preserve"
       style="font-style:normal;font-weight:normal;font-size:12.672px;line-height:1.25;font-family:sans-serif;fill:#000000;fill-opacity:1;stroke:none;stroke-width:0.495"
       x="205.04198"
       y="74.998878"
       id="text3244-6-0"><tspan
         sodipodi:role="line"
         id="tspan3242-7-2"
         style="font-size:12.672px;stroke-width:0.495"
         x="205.04198"
         y="74.998878">Présentation</tspan></text>
    <rect
       style="fill:#4fc7d1;fill-opacity:0.98;stroke:#000601;stroke-width:1.1959;stroke-miterlimit:4;stroke-dasharray:none"
       id="rect930-3-5-3"
       width="110.61442"
       height="24.524595"
       x="198.7496"
       y="82.321632" />
    <text
       xml:space="preserve"
       style="font-style:normal;font-weight:normal;font-size:12.672px;line-height:1.25;font-family:sans-serif;fill:#000000;fill-opacity:1;stroke:none;stroke-width:0.495"
       x="220.12215"
       y="98.198853"
       id="text3244-6-3-7"><tspan
         sodipodi:role="line"
         id="tspan3242-7-5-5"
         style="font-size:12.672px;stroke-width:0.495"
         x="220.12215"
         y="98.198853">Session</tspan></text>
    <rect
       style="fill:#4fc7d1;fill-opacity:0.98;stroke:#000601;stroke-width:1.1959;stroke-miterlimit:4;stroke-dasharray:none"
       id="rect930-3-6-9"
       width="110.61442"
       height="24.524595"
       x="198.7496"
       y="106.84623" />
    <text
       xml:space="preserve"
       style="font-style:normal;font-weight:normal;font-size:12.672px;line-height:1.25;font-family:sans-serif;fill:#000000;fill-opacity:1;stroke:none;stroke-width:0.495"
       x="215.1937"
       y="123.1927"
       id="text3244-6-2-2"><tspan
         sodipodi:role="line"
         id="tspan3242-7-9-2"
         style="font-size:12.672px;stroke-width:0.495"
         x="215.1937"
         y="123.1927">Transport</tspan></text>
    <rect
       style="fill:#4fc7d1;fill-opacity:0.98;stroke:#000601;stroke-width:1.1959;stroke-miterlimit:4;stroke-dasharray:none"
       id="rect930-3-1-8"
       width="110.61442"
       height="24.524595"
       x="198.7496"
       y="131.3708" />
    <text
       xml:space="preserve"
       style="font-style:normal;font-weight:normal;font-size:12.672px;line-height:1.25;font-family:sans-serif;fill:#000000;fill-opacity:1;stroke:none;stroke-width:0.495"
       x="221.92725"
       y="147.55331"
       id="text3244-6-27-9"><tspan
         sodipodi:role="line"
         id="tspan3242-7-0-7"
         style="font-size:12.672px;stroke-width:0.495"
         x="221.92725"
         y="147.55331">Réseau</tspan></text>
    <rect
       style="fill:#4fc7d1;fill-opacity:0.98;stroke:#000601;stroke-width:1.56619;stroke-miterlimit:4;stroke-dasharray:none"
       id="rect930-3-9-3"
       width="110.24413"
       height="42.204597"
       x="198.7496"
       y="155.89542" />
    <text
       xml:space="preserve"
       style="font-style:normal;font-weight:normal;font-size:12.672px;line-height:1.25;font-family:sans-serif;fill:#000000;fill-opacity:1;stroke:none;stroke-width:0.495"
       x="212.80591"
       y="172.40289"
       id="text3244-6-36-6"><tspan
         sodipodi:role="line"
         id="tspan3242-7-06-1"
         style="font-size:12.672px;stroke-width:0.495"
         x="212.80591"
         y="172.40289">Liaison de</tspan><tspan
         sodipodi:role="line"
         style="font-size:12.672px;stroke-width:0.495"
         x="212.80591"
         y="188.24289"
         id="tspan24617-2">Données</tspan></text>
    <rect
       style="fill:#4fc7d1;fill-opacity:0.98;stroke:#000601;stroke-width:1.1959;stroke-miterlimit:4;stroke-dasharray:none"
       id="rect930-3-2-9"
       width="110.61442"
       height="24.524595"
       x="198.3793"
       y="198.10001" />
    <text
       xml:space="preserve"
       style="font-style:normal;font-weight:normal;font-size:12.672px;line-height:1.25;font-family:sans-serif;fill:#000000;fill-opacity:1;stroke:none;stroke-width:0.495"
       x="217.57581"
       y="214.72661"
       id="text3244-6-6-3"><tspan
         sodipodi:role="line"
         id="tspan3242-7-1-1"
         style="font-size:12.672px;stroke-width:0.495"
         x="217.57581"
         y="214.72661">Physique</tspan></text>
    <text
       xml:space="preserve"
       style="font-style:normal;font-weight:normal;font-size:11.088px;line-height:1.25;font-family:sans-serif;fill:#000000;fill-opacity:1;stroke:none;stroke-width:0.594"
       x="387.32901"
       y="207.3709"
       id="text39249-9"><tspan
         sodipodi:role="line"
         id="tspan39247-4"
         style="font-size:11.088px;stroke-width:0.594"
         x="387.32901"
         y="207.3709">   </tspan></text>
    <path
       style="fill:#ff0000;fill-opacity:1;stroke:#ff0000;stroke-width:1.16124;stroke-linecap:butt;stroke-linejoin:round;stroke-miterlimit:4;stroke-dasharray:none;stroke-dashoffset:0;stroke-opacity:1;marker-start:url(#marker50074);marker-end:url(#EmptyTriangleOutL)"
       d="M 13.105968,45.887294 196.91989,46.456111"
       id="path45333" />
    <path
       style="fill:#ff0000;fill-opacity:1;stroke:#ff0000;stroke-width:1.13527;stroke-linecap:butt;stroke-linejoin:miter;stroke-miterlimit:4;stroke-dasharray:none;stroke-opacity:1;marker-start:url(#marker50074);marker-end:url(#EmptyTriangleOutL)"
       d="M 13.575607,70.207431 195.87122,70.755968"
       id="path45333-6" />
    <path
       style="fill:#ff0000;fill-opacity:1;stroke:#ff0000;stroke-width:1.13527;stroke-linecap:butt;stroke-linejoin:miter;stroke-miterlimit:4;stroke-dasharray:none;stroke-opacity:1;marker-start:url(#marker50074);marker-end:url(#EmptyTriangleOutL)"
       d="M 13.575607,95.155431 195.87122,95.703968"
       id="path45333-5" />
    <path
       style="fill:#ff0000;fill-opacity:1;stroke:#ff0000;stroke-width:1.13527;stroke-linecap:butt;stroke-linejoin:miter;stroke-miterlimit:4;stroke-dasharray:none;stroke-opacity:1;marker-start:url(#marker50074);marker-end:url(#EmptyTriangleOutL)"
       d="m 13.575607,121.29143 182.295613,0.54854"
       id="path45333-56" />
    <path
       style="fill:#ff0000;fill-opacity:1;stroke:#ff0000;stroke-width:1.13527;stroke-linecap:butt;stroke-linejoin:miter;stroke-miterlimit:4;stroke-dasharray:none;stroke-opacity:1;marker-start:url(#marker50074);marker-end:url(#EmptyTriangleOutL)"
       d="m 13.575607,145.05143 182.295613,0.54854"
       id="path45333-54" />
    <path
       style="fill:#ff0000;fill-opacity:1;stroke:#ff0000;stroke-width:1.13527;stroke-linecap:butt;stroke-linejoin:miter;stroke-miterlimit:4;stroke-dasharray:none;stroke-opacity:1;marker-start:url(#marker50074);marker-end:url(#EmptyTriangleOutL)"
       d="m 12.347891,175.93943 182.295619,0.54854"
       id="path45333-8" />
    <path
       style="fill:#ff0000;fill-opacity:1;stroke:#ff0000;stroke-width:1.13527;stroke-linecap:butt;stroke-linejoin:miter;stroke-miterlimit:4;stroke-dasharray:none;stroke-opacity:1;marker-start:url(#marker50074);marker-end:url(#EmptyTriangleOutL)"
       d="m 13.575607,210.39143 182.295613,0.54854"
       id="path45333-9" />
    <text
       xml:space="preserve"
       style="font-style:normal;font-weight:normal;font-size:9.504px;line-height:1.25;font-family:sans-serif;fill:#000000;fill-opacity:1;stroke:none;stroke-width:0.594"
       x="14.873452"
       y="115.16867"
       id="text18018"><tspan
         sodipodi:role="line"
         id="tspan18016"
         style="font-size:9.504px;fill:#999999;fill-opacity:1;stroke-width:0.594"
         x="14.873452"
         y="115.16867">Segments (TCP) / Datagrammes (UDP)</tspan></text>
    <text
       xml:space="preserve"
       style="font-style:normal;font-weight:normal;font-size:11.088px;line-height:1.25;font-family:sans-serif;fill:#000000;fill-opacity:1;stroke:none;stroke-width:0.594"
       x="77.273651"
       y="141.19638"
       id="text39782"><tspan
         sodipodi:role="line"
         id="tspan39780"
         style="font-size:11.088px;fill:#999999;fill-opacity:1;stroke-width:0.594"
         x="77.273651"
         y="141.19638">Paquets</tspan></text>
    <text
       xml:space="preserve"
       style="font-style:normal;font-weight:normal;font-size:11.088px;line-height:1.25;font-family:sans-serif;fill:#000000;fill-opacity:1;stroke:none;stroke-width:0.594"
       x="77.332314"
       y="173.20303"
       id="text39782-3"><tspan
         sodipodi:role="line"
         id="tspan39780-6"
         style="font-size:11.088px;fill:#999999;fill-opacity:1;stroke-width:0.594"
         x="77.332314"
         y="173.20303">Trames</tspan></text>
    <text
       xml:space="preserve"
       style="font-style:normal;font-weight:normal;font-size:11.088px;line-height:1.25;font-family:sans-serif;fill:#000000;fill-opacity:1;stroke:none;stroke-width:0.594"
       x="78.122635"
       y="91.859413"
       id="text39782-3-3"><tspan
         sodipodi:role="line"
         id="tspan39780-6-6"
         style="font-size:11.088px;fill:#999999;fill-opacity:1;stroke-width:0.594"
         x="78.122635"
         y="91.859413">Données</tspan></text>
    <text
       xml:space="preserve"
       style="font-style:normal;font-weight:normal;font-size:11.088px;line-height:1.25;font-family:sans-serif;fill:#000000;fill-opacity:1;stroke:none;stroke-width:0.594"
       x="78.559052"
       y="67.378517"
       id="text39782-3-3-7"><tspan
         sodipodi:role="line"
         id="tspan39780-6-6-5"
         style="font-size:11.088px;fill:#999999;fill-opacity:1;stroke-width:0.594"
         x="78.559052"
         y="67.378517">Données</tspan></text>
    <text
       xml:space="preserve"
       style="font-style:normal;font-weight:normal;font-size:11.088px;line-height:1.25;font-family:sans-serif;fill:#000000;fill-opacity:1;stroke:none;stroke-width:0.594"
       x="78.413834"
       y="42.808167"
       id="text39782-3-3-3"><tspan
         sodipodi:role="line"
         id="tspan39780-6-6-56"
         style="font-size:11.088px;fill:#999999;fill-opacity:1;stroke-width:0.594"
         x="78.413834"
         y="42.808167">Données</tspan></text>
    <text
       xml:space="preserve"
       style="font-style:normal;font-weight:normal;font-size:11.088px;line-height:1.25;font-family:sans-serif;fill:#000000;fill-opacity:1;stroke:none;stroke-width:0.594"
       x="36.256077"
       y="205.91692"
       id="text39782-7"><tspan
         sodipodi:role="line"
         id="tspan39780-5"
         style="font-size:11.088px;fill:#999999;fill-opacity:1;stroke-width:0.594"
         x="36.256077"
         y="205.91692">10110101100110110101</tspan></text>
  </g>
</svg>
