<?xml version="1.0" encoding="UTF-8"?>
<svg version="1.2" baseProfile="tiny" width="279.4mm" height="215.9mm" viewBox="0 0 27940 21590" preserveAspectRatio="xMidYMid" fill-rule="evenodd" clip-path="url(#presentation_clip_path)" stroke-width="28.222" stroke-linejoin="round" xmlns="http://www.w3.org/2000/svg" xmlns:ooo="http://xml.openoffice.org/svg/export" xmlns:xlink="http://www.w3.org/1999/xlink" xml:space="preserve">
 <defs class="ClipPathGroup">
  <clipPath id="presentation_clip_path" clipPathUnits="userSpaceOnUse">
   <rect x="0" y="0" width="27940" height="21590"/>
  </clipPath>
 </defs>
 <defs class="TextShapeIndex">
  <g ooo:slide="id1" ooo:id-list="id3 id4 id5 id6 id7"/>
 </defs>
 <defs class="EmbeddedBulletChars">
  <g id="bullet-char-template(57356)" transform="scale(0.00048828125,-0.00048828125)">
   <path d="M 580,1141 L 1163,571 580,0 -4,571 580,1141 Z"/>
  </g>
  <g id="bullet-char-template(57354)" transform="scale(0.00048828125,-0.00048828125)">
   <path d="M 8,1128 L 1137,1128 1137,0 8,0 8,1128 Z"/>
  </g>
  <g id="bullet-char-template(10146)" transform="scale(0.00048828125,-0.00048828125)">
   <path d="M 174,0 L 602,739 174,1481 1456,739 174,0 Z M 1358,739 L 309,1346 659,739 1358,739 Z"/>
  </g>
  <g id="bullet-char-template(10132)" transform="scale(0.00048828125,-0.00048828125)">
   <path d="M 2015,739 L 1276,0 717,0 1260,543 174,543 174,936 1260,936 717,1481 1274,1481 2015,739 Z"/>
  </g>
  <g id="bullet-char-template(10007)" transform="scale(0.00048828125,-0.00048828125)">
   <path d="M 0,-2 C -7,14 -16,27 -25,37 L 356,567 C 262,823 215,952 215,954 215,979 228,992 255,992 264,992 276,990 289,987 310,991 331,999 354,1012 L 381,999 492,748 772,1049 836,1024 860,1049 C 881,1039 901,1025 922,1006 886,937 835,863 770,784 769,783 710,716 594,584 L 774,223 C 774,196 753,168 711,139 L 727,119 C 717,90 699,76 672,76 641,76 570,178 457,381 L 164,-76 C 142,-110 111,-127 72,-127 30,-127 9,-110 8,-76 1,-67 -2,-52 -2,-32 -2,-23 -1,-13 0,-2 Z"/>
  </g>
  <g id="bullet-char-template(10004)" transform="scale(0.00048828125,-0.00048828125)">
   <path d="M 285,-33 C 182,-33 111,30 74,156 52,228 41,333 41,471 41,549 55,616 82,672 116,743 169,778 240,778 293,778 328,747 346,684 L 369,508 C 377,444 397,411 428,410 L 1163,1116 C 1174,1127 1196,1133 1229,1133 1271,1133 1292,1118 1292,1087 L 1292,965 C 1292,929 1282,901 1262,881 L 442,47 C 390,-6 338,-33 285,-33 Z"/>
  </g>
  <g id="bullet-char-template(9679)" transform="scale(0.00048828125,-0.00048828125)">
   <path d="M 813,0 C 632,0 489,54 383,161 276,268 223,411 223,592 223,773 276,916 383,1023 489,1130 632,1184 813,1184 992,1184 1136,1130 1245,1023 1353,916 1407,772 1407,592 1407,412 1353,268 1245,161 1136,54 992,0 813,0 Z"/>
  </g>
  <g id="bullet-char-template(8226)" transform="scale(0.00048828125,-0.00048828125)">
   <path d="M 346,457 C 273,457 209,483 155,535 101,586 74,649 74,723 74,796 101,859 155,911 209,963 273,989 346,989 419,989 480,963 531,910 582,859 608,796 608,723 608,648 583,586 532,535 482,483 420,457 346,457 Z"/>
  </g>
  <g id="bullet-char-template(8211)" transform="scale(0.00048828125,-0.00048828125)">
   <path d="M -4,459 L 1135,459 1135,606 -4,606 -4,459 Z"/>
  </g>
 </defs>
 <defs class="TextEmbeddedBitmaps"/>
 <g>
  <g id="id2" class="Master_Slide">
   <g id="bg-id2" class="Background"/>
   <g id="bo-id2" class="BackgroundObjects"/>
  </g>
 </g>
 <g class="SlideGroup">
  <g>
   <g id="id1" class="Slide" clip-path="url(#presentation_clip_path)">
    <g class="Page">
     <g class="com.sun.star.drawing.CustomShape">
      <g id="id3">
       <path fill="rgb(114,159,207)" stroke="none" d="M 1762,19288 L 1826,10604 7024,5444 26401,5444 26337,14127 21138,19288 1762,19288 Z M 1864,5444 L 1864,5444 Z M 26299,19288 L 26299,19288 Z"/>
       <path fill="none" stroke="rgb(52,101,164)" d="M 1762,19288 L 1826,10604 7024,5444 26401,5444 26337,14127 21138,19288 1762,19288 Z"/>
       <path fill="none" stroke="rgb(52,101,164)" d="M 1864,5444 L 1864,5444 Z"/>
       <path fill="none" stroke="rgb(52,101,164)" d="M 26299,19288 L 26299,19288 Z"/>
       <path fill="rgb(139,176,217)" stroke="none" d="M 1826,10604 L 7024,5444 26401,5444 21202,10604 1826,10604 Z M 1864,5444 L 1864,5444 Z M 26299,19288 L 26299,19288 Z"/>
       <path fill="none" stroke="rgb(52,101,164)" d="M 1826,10604 L 7024,5444 26401,5444 21202,10604 1826,10604 Z"/>
       <path fill="none" stroke="rgb(52,101,164)" d="M 1864,5444 L 1864,5444 Z"/>
       <path fill="none" stroke="rgb(52,101,164)" d="M 26299,19288 L 26299,19288 Z"/>
       <path fill="rgb(91,127,166)" stroke="none" d="M 21138,19288 L 21202,10604 26401,5444 26337,14127 21138,19288 Z M 1864,5444 L 1864,5444 Z M 26299,19288 L 26299,19288 Z"/>
       <path fill="none" stroke="rgb(52,101,164)" d="M 21138,19288 L 21202,10604 26401,5444 26337,14127 21138,19288 Z"/>
       <path fill="none" stroke="rgb(52,101,164)" d="M 1864,5444 L 1864,5444 Z"/>
       <path fill="none" stroke="rgb(52,101,164)" d="M 26299,19288 L 26299,19288 Z"/>
      </g>
     </g>
     <g class="com.sun.star.drawing.CustomShape">
      <g id="id4">
       <path fill="rgb(255,255,255)" stroke="none" d="M 14589,9476 L 6111,9476 6111,9127 3285,9826 6111,10525 6111,10175 14589,10175 14589,9476 Z M 3285,9127 L 3285,9127 Z M 14589,10525 L 14589,10525 Z"/>
       <path fill="none" stroke="rgb(255,255,255)" d="M 14589,9476 L 6111,9476 6111,9127 3285,9826 6111,10525 6111,10175 14589,10175 14589,9476 Z"/>
       <path fill="none" stroke="rgb(255,255,255)" d="M 3285,9127 L 3285,9127 Z"/>
       <path fill="none" stroke="rgb(255,255,255)" d="M 14589,10525 L 14589,10525 Z"/>
      </g>
     </g>
     <g class="com.sun.star.drawing.CustomShape">
      <g id="id5">
       <path fill="rgb(255,255,255)" stroke="none" d="M 14716,7096 L 7762,7096 7762,6715 5444,7477 7762,8239 7762,7858 14716,7858 14716,7096 Z M 5444,6715 L 5444,6715 Z M 14716,8240 L 14716,8240 Z"/>
       <path fill="none" stroke="rgb(255,255,255)" d="M 14716,7096 L 7762,7096 7762,6715 5444,7477 7762,8239 7762,7858 14716,7858 14716,7096 Z"/>
       <path fill="none" stroke="rgb(255,255,255)" d="M 5444,6715 L 5444,6715 Z"/>
       <path fill="none" stroke="rgb(255,255,255)" d="M 14716,8240 L 14716,8240 Z"/>
      </g>
     </g>
     <g class="com.sun.star.drawing.CustomShape">
      <g id="id6">
       <path fill="rgb(255,255,255)" stroke="none" d="M 13446,8239 L 20495,8239 20495,7858 22845,8620 20495,9382 20495,9001 13446,9001 13446,8239 Z M 13446,7858 L 13446,7858 Z M 22845,9383 L 22845,9383 Z"/>
       <path fill="none" stroke="rgb(255,255,255)" d="M 13446,8239 L 20495,8239 20495,7858 22845,8620 20495,9382 20495,9001 13446,9001 13446,8239 Z"/>
       <path fill="none" stroke="rgb(255,255,255)" d="M 13446,7858 L 13446,7858 Z"/>
       <path fill="none" stroke="rgb(255,255,255)" d="M 22845,9383 L 22845,9383 Z"/>
      </g>
     </g>
     <g class="com.sun.star.drawing.CustomShape">
      <g id="id7">
       <path fill="rgb(255,255,255)" stroke="none" d="M 13699,5920 L 22367,5920 22367,5571 25257,6270 22367,6969 22367,6619 13699,6619 13699,5920 Z M 13699,5571 L 13699,5571 Z M 25257,6969 L 25257,6969 Z"/>
       <path fill="none" stroke="rgb(255,255,255)" d="M 13699,5920 L 22367,5920 22367,5571 25257,6270 22367,6969 22367,6619 13699,6619 13699,5920 Z"/>
       <path fill="none" stroke="rgb(255,255,255)" d="M 13699,5571 L 13699,5571 Z"/>
       <path fill="none" stroke="rgb(255,255,255)" d="M 25257,6969 L 25257,6969 Z"/>
      </g>
     </g>
    </g>
   </g>
  </g>
 </g>
</svg>